<?xml version="1.0" encoding="UTF-8"?>
<dia:diagram xmlns:dia="http://www.lysator.liu.se/~alla/dia/">
  <dia:diagramdata>
    <dia:attribute name="background">
      <dia:color val="#ffffffff"/>
    </dia:attribute>
    <dia:attribute name="pagebreak">
      <dia:color val="#000099ff"/>
    </dia:attribute>
    <dia:attribute name="paper">
      <dia:composite type="paper">
        <dia:attribute name="name">
          <dia:string>#A4#</dia:string>
        </dia:attribute>
        <dia:attribute name="tmargin">
          <dia:real val="2.8222000598907471"/>
        </dia:attribute>
        <dia:attribute name="bmargin">
          <dia:real val="2.8222000598907471"/>
        </dia:attribute>
        <dia:attribute name="lmargin">
          <dia:real val="2.8222000598907471"/>
        </dia:attribute>
        <dia:attribute name="rmargin">
          <dia:real val="2.8222000598907471"/>
        </dia:attribute>
        <dia:attribute name="is_portrait">
          <dia:boolean val="true"/>
        </dia:attribute>
        <dia:attribute name="scaling">
          <dia:real val="1"/>
        </dia:attribute>
        <dia:attribute name="fitto">
          <dia:boolean val="false"/>
        </dia:attribute>
      </dia:composite>
    </dia:attribute>
    <dia:attribute name="grid">
      <dia:composite type="grid">
        <dia:attribute name="dynamic">
          <dia:boolean val="true"/>
        </dia:attribute>
        <dia:attribute name="width_x">
          <dia:real val="1"/>
        </dia:attribute>
        <dia:attribute name="width_y">
          <dia:real val="1"/>
        </dia:attribute>
        <dia:attribute name="visible_x">
          <dia:int val="1"/>
        </dia:attribute>
        <dia:attribute name="visible_y">
          <dia:int val="1"/>
        </dia:attribute>
        <dia:composite type="color"/>
      </dia:composite>
    </dia:attribute>
    <dia:attribute name="color">
      <dia:color val="#d8e5e5ff"/>
    </dia:attribute>
    <dia:attribute name="guides">
      <dia:composite type="guides">
        <dia:attribute name="hguides"/>
        <dia:attribute name="vguides"/>
      </dia:composite>
    </dia:attribute>
    <dia:attribute name="display">
      <dia:composite type="display">
        <dia:attribute name="antialiased">
          <dia:boolean val="false"/>
        </dia:attribute>
        <dia:attribute name="snap-to-grid">
          <dia:boolean val="false"/>
        </dia:attribute>
        <dia:attribute name="snap-to-object">
          <dia:boolean val="true"/>
        </dia:attribute>
        <dia:attribute name="show-grid">
          <dia:boolean val="true"/>
        </dia:attribute>
        <dia:attribute name="show-connection-points">
          <dia:boolean val="true"/>
        </dia:attribute>
      </dia:composite>
    </dia:attribute>
  </dia:diagramdata>
  <dia:layer name="Background" visible="true" connectable="true" active="true">
    <dia:object type="Misc - Grid" version="0" id="O0">
      <dia:attribute name="obj_pos">
        <dia:point val="5.1,-8.05"/>
      </dia:attribute>
      <dia:attribute name="obj_bb">
        <dia:rectangle val="5.05,-8.1;69.05,-5.05"/>
      </dia:attribute>
      <dia:attribute name="meta">
        <dia:composite type="dict"/>
      </dia:attribute>
      <dia:attribute name="elem_corner">
        <dia:point val="5.1,-8.05"/>
      </dia:attribute>
      <dia:attribute name="elem_width">
        <dia:real val="63.899999999999999"/>
      </dia:attribute>
      <dia:attribute name="elem_height">
        <dia:real val="2.9500000000000002"/>
      </dia:attribute>
      <dia:attribute name="line_width">
        <dia:real val="0.10000000000000001"/>
      </dia:attribute>
      <dia:attribute name="line_colour">
        <dia:color val="#000000ff"/>
      </dia:attribute>
      <dia:attribute name="fill_colour">
        <dia:color val="#ffffff00"/>
      </dia:attribute>
      <dia:attribute name="show_background">
        <dia:boolean val="false"/>
      </dia:attribute>
      <dia:attribute name="grid_rows">
        <dia:int val="1"/>
      </dia:attribute>
      <dia:attribute name="grid_cols">
        <dia:int val="20"/>
      </dia:attribute>
      <dia:attribute name="gridline_colour">
        <dia:color val="#000000ff"/>
      </dia:attribute>
      <dia:attribute name="gridline_width">
        <dia:real val="0.10000000000000001"/>
      </dia:attribute>
    </dia:object>
    <dia:object type="Standard - Text" version="1" id="O1">
      <dia:attribute name="obj_pos">
        <dia:point val="37.05,-6.575"/>
      </dia:attribute>
      <dia:attribute name="obj_bb">
        <dia:rectangle val="37.05,-7.33059;37.05,-5.81941"/>
      </dia:attribute>
      <dia:attribute name="text">
        <dia:composite type="text">
          <dia:attribute name="string">
            <dia:string>##</dia:string>
          </dia:attribute>
          <dia:attribute name="font">
            <dia:font family="sans" style="0" name="Helvetica"/>
          </dia:attribute>
          <dia:attribute name="height">
            <dia:real val="1.6227777153253555"/>
          </dia:attribute>
          <dia:attribute name="pos">
            <dia:point val="37.05,-6.12557"/>
          </dia:attribute>
          <dia:attribute name="color">
            <dia:color val="#000000ff"/>
          </dia:attribute>
          <dia:attribute name="alignment">
            <dia:enum val="1"/>
          </dia:attribute>
        </dia:composite>
      </dia:attribute>
      <dia:attribute name="valign">
        <dia:enum val="2"/>
      </dia:attribute>
      <dia:connections>
        <dia:connection handle="0" to="O0" connection="8"/>
      </dia:connections>
    </dia:object>
    <dia:object type="Standard - Text" version="1" id="O2">
      <dia:attribute name="obj_pos">
        <dia:point val="37.05,-6.575"/>
      </dia:attribute>
      <dia:attribute name="obj_bb">
        <dia:rectangle val="37.05,-7.33059;37.05,-5.81941"/>
      </dia:attribute>
      <dia:attribute name="text">
        <dia:composite type="text">
          <dia:attribute name="string">
            <dia:string>##</dia:string>
          </dia:attribute>
          <dia:attribute name="font">
            <dia:font family="sans" style="0" name="Helvetica"/>
          </dia:attribute>
          <dia:attribute name="height">
            <dia:real val="1.6227777153253555"/>
          </dia:attribute>
          <dia:attribute name="pos">
            <dia:point val="37.05,-6.12557"/>
          </dia:attribute>
          <dia:attribute name="color">
            <dia:color val="#000000ff"/>
          </dia:attribute>
          <dia:attribute name="alignment">
            <dia:enum val="1"/>
          </dia:attribute>
        </dia:composite>
      </dia:attribute>
      <dia:attribute name="valign">
        <dia:enum val="2"/>
      </dia:attribute>
      <dia:connections>
        <dia:connection handle="0" to="O0" connection="8"/>
      </dia:connections>
    </dia:object>
    <dia:object type="Standard - Text" version="1" id="O3">
      <dia:attribute name="obj_pos">
        <dia:point val="37.05,-6.575"/>
      </dia:attribute>
      <dia:attribute name="obj_bb">
        <dia:rectangle val="37.05,-7.33059;37.05,-5.81941"/>
      </dia:attribute>
      <dia:attribute name="text">
        <dia:composite type="text">
          <dia:attribute name="string">
            <dia:string>##</dia:string>
          </dia:attribute>
          <dia:attribute name="font">
            <dia:font family="sans" style="0" name="Helvetica"/>
          </dia:attribute>
          <dia:attribute name="height">
            <dia:real val="1.6227777153253555"/>
          </dia:attribute>
          <dia:attribute name="pos">
            <dia:point val="37.05,-6.12557"/>
          </dia:attribute>
          <dia:attribute name="color">
            <dia:color val="#000000ff"/>
          </dia:attribute>
          <dia:attribute name="alignment">
            <dia:enum val="1"/>
          </dia:attribute>
        </dia:composite>
      </dia:attribute>
      <dia:attribute name="valign">
        <dia:enum val="2"/>
      </dia:attribute>
      <dia:connections>
        <dia:connection handle="0" to="O0" connection="8"/>
      </dia:connections>
    </dia:object>
    <dia:object type="Standard - Text" version="1" id="O4">
      <dia:attribute name="obj_pos">
        <dia:point val="6.6975,-6.575"/>
      </dia:attribute>
      <dia:attribute name="obj_bb">
        <dia:rectangle val="6.6975,-7.33059;6.6975,-5.81941"/>
      </dia:attribute>
      <dia:attribute name="text">
        <dia:composite type="text">
          <dia:attribute name="string">
            <dia:string>##</dia:string>
          </dia:attribute>
          <dia:attribute name="font">
            <dia:font family="sans" style="0" name="Helvetica"/>
          </dia:attribute>
          <dia:attribute name="height">
            <dia:real val="1.6227777153253555"/>
          </dia:attribute>
          <dia:attribute name="pos">
            <dia:point val="6.6975,-6.12557"/>
          </dia:attribute>
          <dia:attribute name="color">
            <dia:color val="#000000ff"/>
          </dia:attribute>
          <dia:attribute name="alignment">
            <dia:enum val="1"/>
          </dia:attribute>
        </dia:composite>
      </dia:attribute>
      <dia:attribute name="valign">
        <dia:enum val="2"/>
      </dia:attribute>
      <dia:connections>
        <dia:connection handle="0" to="O0" connection="9"/>
      </dia:connections>
    </dia:object>
    <dia:object type="Standard - Text" version="1" id="O5">
      <dia:attribute name="obj_pos">
        <dia:point val="9.8925,-6.575"/>
      </dia:attribute>
      <dia:attribute name="obj_bb">
        <dia:rectangle val="9.48,-7.33059;10.305,-5.81941"/>
      </dia:attribute>
      <dia:attribute name="text">
        <dia:composite type="text">
          <dia:attribute name="string">
            <dia:string>#1#</dia:string>
          </dia:attribute>
          <dia:attribute name="font">
            <dia:font family="sans" style="0" name="Helvetica"/>
          </dia:attribute>
          <dia:attribute name="height">
            <dia:real val="1.6227777153253555"/>
          </dia:attribute>
          <dia:attribute name="pos">
            <dia:point val="9.8925,-6.12557"/>
          </dia:attribute>
          <dia:attribute name="color">
            <dia:color val="#000000ff"/>
          </dia:attribute>
          <dia:attribute name="alignment">
            <dia:enum val="1"/>
          </dia:attribute>
        </dia:composite>
      </dia:attribute>
      <dia:attribute name="valign">
        <dia:enum val="2"/>
      </dia:attribute>
      <dia:connections>
        <dia:connection handle="0" to="O0" connection="10"/>
      </dia:connections>
    </dia:object>
    <dia:object type="Standard - Text" version="1" id="O6">
      <dia:attribute name="obj_pos">
        <dia:point val="13.0875,-6.575"/>
      </dia:attribute>
      <dia:attribute name="obj_bb">
        <dia:rectangle val="13.0875,-7.33059;13.0875,-5.81941"/>
      </dia:attribute>
      <dia:attribute name="text">
        <dia:composite type="text">
          <dia:attribute name="string">
            <dia:string>##</dia:string>
          </dia:attribute>
          <dia:attribute name="font">
            <dia:font family="sans" style="0" name="Helvetica"/>
          </dia:attribute>
          <dia:attribute name="height">
            <dia:real val="1.6227777153253555"/>
          </dia:attribute>
          <dia:attribute name="pos">
            <dia:point val="13.0875,-6.12557"/>
          </dia:attribute>
          <dia:attribute name="color">
            <dia:color val="#000000ff"/>
          </dia:attribute>
          <dia:attribute name="alignment">
            <dia:enum val="1"/>
          </dia:attribute>
        </dia:composite>
      </dia:attribute>
      <dia:attribute name="valign">
        <dia:enum val="2"/>
      </dia:attribute>
      <dia:connections>
        <dia:connection handle="0" to="O0" connection="11"/>
      </dia:connections>
    </dia:object>
    <dia:object type="Standard - Text" version="1" id="O7">
      <dia:attribute name="obj_pos">
        <dia:point val="16.2825,-6.575"/>
      </dia:attribute>
      <dia:attribute name="obj_bb">
        <dia:rectangle val="15.87,-7.33059;16.695,-5.81941"/>
      </dia:attribute>
      <dia:attribute name="text">
        <dia:composite type="text">
          <dia:attribute name="string">
            <dia:string>#3#</dia:string>
          </dia:attribute>
          <dia:attribute name="font">
            <dia:font family="sans" style="0" name="Helvetica"/>
          </dia:attribute>
          <dia:attribute name="height">
            <dia:real val="1.6227777153253555"/>
          </dia:attribute>
          <dia:attribute name="pos">
            <dia:point val="16.2825,-6.12557"/>
          </dia:attribute>
          <dia:attribute name="color">
            <dia:color val="#000000ff"/>
          </dia:attribute>
          <dia:attribute name="alignment">
            <dia:enum val="1"/>
          </dia:attribute>
        </dia:composite>
      </dia:attribute>
      <dia:attribute name="valign">
        <dia:enum val="2"/>
      </dia:attribute>
      <dia:connections>
        <dia:connection handle="0" to="O0" connection="12"/>
      </dia:connections>
    </dia:object>
    <dia:object type="Standard - Text" version="1" id="O8">
      <dia:attribute name="obj_pos">
        <dia:point val="19.4775,-6.575"/>
      </dia:attribute>
      <dia:attribute name="obj_bb">
        <dia:rectangle val="19.065,-7.38726;19.9278,-5.76274"/>
      </dia:attribute>
      <dia:attribute name="text">
        <dia:composite type="text">
          <dia:attribute name="string">
            <dia:string>#4#</dia:string>
          </dia:attribute>
          <dia:attribute name="font">
            <dia:font family="sans" style="0" name="Helvetica"/>
          </dia:attribute>
          <dia:attribute name="height">
            <dia:real val="1.6227777153253555"/>
          </dia:attribute>
          <dia:attribute name="pos">
            <dia:point val="19.4775,-6.14446"/>
          </dia:attribute>
          <dia:attribute name="color">
            <dia:color val="#000000ff"/>
          </dia:attribute>
          <dia:attribute name="alignment">
            <dia:enum val="1"/>
          </dia:attribute>
        </dia:composite>
      </dia:attribute>
      <dia:attribute name="valign">
        <dia:enum val="2"/>
      </dia:attribute>
      <dia:connections>
        <dia:connection handle="0" to="O0" connection="13"/>
      </dia:connections>
    </dia:object>
    <dia:object type="Standard - Text" version="1" id="O9">
      <dia:attribute name="obj_pos">
        <dia:point val="37.05,-6.575"/>
      </dia:attribute>
      <dia:attribute name="obj_bb">
        <dia:rectangle val="37.05,-7.33059;37.05,-5.81941"/>
      </dia:attribute>
      <dia:attribute name="text">
        <dia:composite type="text">
          <dia:attribute name="string">
            <dia:string>##</dia:string>
          </dia:attribute>
          <dia:attribute name="font">
            <dia:font family="sans" style="0" name="Helvetica"/>
          </dia:attribute>
          <dia:attribute name="height">
            <dia:real val="1.6227777153253555"/>
          </dia:attribute>
          <dia:attribute name="pos">
            <dia:point val="37.05,-6.12557"/>
          </dia:attribute>
          <dia:attribute name="color">
            <dia:color val="#000000ff"/>
          </dia:attribute>
          <dia:attribute name="alignment">
            <dia:enum val="1"/>
          </dia:attribute>
        </dia:composite>
      </dia:attribute>
      <dia:attribute name="valign">
        <dia:enum val="2"/>
      </dia:attribute>
      <dia:connections>
        <dia:connection handle="0" to="O0" connection="8"/>
      </dia:connections>
    </dia:object>
    <dia:object type="Standard - Text" version="1" id="O10">
      <dia:attribute name="obj_pos">
        <dia:point val="22.6725,-6.575"/>
      </dia:attribute>
      <dia:attribute name="obj_bb">
        <dia:rectangle val="22.6347,-7.38726;22.6725,-5.76274"/>
      </dia:attribute>
      <dia:attribute name="text">
        <dia:composite type="text">
          <dia:attribute name="string">
            <dia:string>##</dia:string>
          </dia:attribute>
          <dia:attribute name="font">
            <dia:font family="sans" style="0" name="Helvetica"/>
          </dia:attribute>
          <dia:attribute name="height">
            <dia:real val="1.6227777153253555"/>
          </dia:attribute>
          <dia:attribute name="pos">
            <dia:point val="22.6725,-6.14446"/>
          </dia:attribute>
          <dia:attribute name="color">
            <dia:color val="#000000ff"/>
          </dia:attribute>
          <dia:attribute name="alignment">
            <dia:enum val="1"/>
          </dia:attribute>
        </dia:composite>
      </dia:attribute>
      <dia:attribute name="valign">
        <dia:enum val="2"/>
      </dia:attribute>
      <dia:connections>
        <dia:connection handle="0" to="O0" connection="14"/>
      </dia:connections>
    </dia:object>
    <dia:object type="Standard - Text" version="1" id="O11">
      <dia:attribute name="obj_pos">
        <dia:point val="37.05,-6.575"/>
      </dia:attribute>
      <dia:attribute name="obj_bb">
        <dia:rectangle val="37.05,-7.33059;37.05,-5.81941"/>
      </dia:attribute>
      <dia:attribute name="text">
        <dia:composite type="text">
          <dia:attribute name="string">
            <dia:string>##</dia:string>
          </dia:attribute>
          <dia:attribute name="font">
            <dia:font family="sans" style="0" name="Helvetica"/>
          </dia:attribute>
          <dia:attribute name="height">
            <dia:real val="1.6227777153253555"/>
          </dia:attribute>
          <dia:attribute name="pos">
            <dia:point val="37.05,-6.12557"/>
          </dia:attribute>
          <dia:attribute name="color">
            <dia:color val="#000000ff"/>
          </dia:attribute>
          <dia:attribute name="alignment">
            <dia:enum val="1"/>
          </dia:attribute>
        </dia:composite>
      </dia:attribute>
      <dia:attribute name="valign">
        <dia:enum val="2"/>
      </dia:attribute>
      <dia:connections>
        <dia:connection handle="0" to="O0" connection="8"/>
      </dia:connections>
    </dia:object>
    <dia:object type="Standard - Text" version="1" id="O12">
      <dia:attribute name="obj_pos">
        <dia:point val="25.8675,-6.575"/>
      </dia:attribute>
      <dia:attribute name="obj_bb">
        <dia:rectangle val="25.455,-7.38726;26.3178,-5.76274"/>
      </dia:attribute>
      <dia:attribute name="text">
        <dia:composite type="text">
          <dia:attribute name="string">
            <dia:string>#6#</dia:string>
          </dia:attribute>
          <dia:attribute name="font">
            <dia:font family="sans" style="0" name="Helvetica"/>
          </dia:attribute>
          <dia:attribute name="height">
            <dia:real val="1.6227777153253555"/>
          </dia:attribute>
          <dia:attribute name="pos">
            <dia:point val="25.8675,-6.14446"/>
          </dia:attribute>
          <dia:attribute name="color">
            <dia:color val="#000000ff"/>
          </dia:attribute>
          <dia:attribute name="alignment">
            <dia:enum val="1"/>
          </dia:attribute>
        </dia:composite>
      </dia:attribute>
      <dia:attribute name="valign">
        <dia:enum val="2"/>
      </dia:attribute>
      <dia:connections>
        <dia:connection handle="0" to="O0" connection="15"/>
      </dia:connections>
    </dia:object>
    <dia:object type="Standard - Text" version="1" id="O13">
      <dia:attribute name="obj_pos">
        <dia:point val="29.0625,-6.575"/>
      </dia:attribute>
      <dia:attribute name="obj_bb">
        <dia:rectangle val="29.0247,-7.38726;29.0625,-5.76274"/>
      </dia:attribute>
      <dia:attribute name="text">
        <dia:composite type="text">
          <dia:attribute name="string">
            <dia:string>##</dia:string>
          </dia:attribute>
          <dia:attribute name="font">
            <dia:font family="sans" style="0" name="Helvetica"/>
          </dia:attribute>
          <dia:attribute name="height">
            <dia:real val="1.6227777153253555"/>
          </dia:attribute>
          <dia:attribute name="pos">
            <dia:point val="29.0625,-6.14446"/>
          </dia:attribute>
          <dia:attribute name="color">
            <dia:color val="#000000ff"/>
          </dia:attribute>
          <dia:attribute name="alignment">
            <dia:enum val="1"/>
          </dia:attribute>
        </dia:composite>
      </dia:attribute>
      <dia:attribute name="valign">
        <dia:enum val="2"/>
      </dia:attribute>
      <dia:connections>
        <dia:connection handle="0" to="O0" connection="16"/>
      </dia:connections>
    </dia:object>
    <dia:object type="Standard - Text" version="1" id="O14">
      <dia:attribute name="obj_pos">
        <dia:point val="37.05,-6.575"/>
      </dia:attribute>
      <dia:attribute name="obj_bb">
        <dia:rectangle val="37.05,-7.33059;37.05,-5.81941"/>
      </dia:attribute>
      <dia:attribute name="text">
        <dia:composite type="text">
          <dia:attribute name="string">
            <dia:string>##</dia:string>
          </dia:attribute>
          <dia:attribute name="font">
            <dia:font family="sans" style="0" name="Helvetica"/>
          </dia:attribute>
          <dia:attribute name="height">
            <dia:real val="1.6227777153253555"/>
          </dia:attribute>
          <dia:attribute name="pos">
            <dia:point val="37.05,-6.12557"/>
          </dia:attribute>
          <dia:attribute name="color">
            <dia:color val="#000000ff"/>
          </dia:attribute>
          <dia:attribute name="alignment">
            <dia:enum val="1"/>
          </dia:attribute>
        </dia:composite>
      </dia:attribute>
      <dia:attribute name="valign">
        <dia:enum val="2"/>
      </dia:attribute>
      <dia:connections>
        <dia:connection handle="0" to="O0" connection="8"/>
      </dia:connections>
    </dia:object>
    <dia:object type="Standard - Text" version="1" id="O15">
      <dia:attribute name="obj_pos">
        <dia:point val="32.2575,-6.575"/>
      </dia:attribute>
      <dia:attribute name="obj_bb">
        <dia:rectangle val="31.845,-7.38726;32.7078,-5.76274"/>
      </dia:attribute>
      <dia:attribute name="text">
        <dia:composite type="text">
          <dia:attribute name="string">
            <dia:string>#8#</dia:string>
          </dia:attribute>
          <dia:attribute name="font">
            <dia:font family="sans" style="0" name="Helvetica"/>
          </dia:attribute>
          <dia:attribute name="height">
            <dia:real val="1.6227777153253555"/>
          </dia:attribute>
          <dia:attribute name="pos">
            <dia:point val="32.2575,-6.14446"/>
          </dia:attribute>
          <dia:attribute name="color">
            <dia:color val="#000000ff"/>
          </dia:attribute>
          <dia:attribute name="alignment">
            <dia:enum val="1"/>
          </dia:attribute>
        </dia:composite>
      </dia:attribute>
      <dia:attribute name="valign">
        <dia:enum val="2"/>
      </dia:attribute>
      <dia:connections>
        <dia:connection handle="0" to="O0" connection="17"/>
      </dia:connections>
    </dia:object>
    <dia:object type="Standard - Text" version="1" id="O16">
      <dia:attribute name="obj_pos">
        <dia:point val="35.4525,-6.575"/>
      </dia:attribute>
      <dia:attribute name="obj_bb">
        <dia:rectangle val="35.04,-7.38726;35.9028,-5.76274"/>
      </dia:attribute>
      <dia:attribute name="text">
        <dia:composite type="text">
          <dia:attribute name="string">
            <dia:string>#9#</dia:string>
          </dia:attribute>
          <dia:attribute name="font">
            <dia:font family="sans" style="0" name="Helvetica"/>
          </dia:attribute>
          <dia:attribute name="height">
            <dia:real val="1.6227777153253555"/>
          </dia:attribute>
          <dia:attribute name="pos">
            <dia:point val="35.4525,-6.14446"/>
          </dia:attribute>
          <dia:attribute name="color">
            <dia:color val="#000000ff"/>
          </dia:attribute>
          <dia:attribute name="alignment">
            <dia:enum val="1"/>
          </dia:attribute>
        </dia:composite>
      </dia:attribute>
      <dia:attribute name="valign">
        <dia:enum val="2"/>
      </dia:attribute>
      <dia:connections>
        <dia:connection handle="0" to="O0" connection="18"/>
      </dia:connections>
    </dia:object>
    <dia:object type="Standard - Text" version="1" id="O17">
      <dia:attribute name="obj_pos">
        <dia:point val="35.4525,-6.575"/>
      </dia:attribute>
      <dia:attribute name="obj_bb">
        <dia:rectangle val="35.4525,-7.33059;35.4525,-5.81941"/>
      </dia:attribute>
      <dia:attribute name="text">
        <dia:composite type="text">
          <dia:attribute name="string">
            <dia:string>##</dia:string>
          </dia:attribute>
          <dia:attribute name="font">
            <dia:font family="sans" style="0" name="Helvetica"/>
          </dia:attribute>
          <dia:attribute name="height">
            <dia:real val="1.6227777153253555"/>
          </dia:attribute>
          <dia:attribute name="pos">
            <dia:point val="35.4525,-6.12557"/>
          </dia:attribute>
          <dia:attribute name="color">
            <dia:color val="#000000ff"/>
          </dia:attribute>
          <dia:attribute name="alignment">
            <dia:enum val="1"/>
          </dia:attribute>
        </dia:composite>
      </dia:attribute>
      <dia:attribute name="valign">
        <dia:enum val="2"/>
      </dia:attribute>
      <dia:connections>
        <dia:connection handle="0" to="O0" connection="18"/>
      </dia:connections>
    </dia:object>
    <dia:object type="Standard - Text" version="1" id="O18">
      <dia:attribute name="obj_pos">
        <dia:point val="38.6475,-6.575"/>
      </dia:attribute>
      <dia:attribute name="obj_bb">
        <dia:rectangle val="38.6097,-7.38726;38.6475,-5.76274"/>
      </dia:attribute>
      <dia:attribute name="text">
        <dia:composite type="text">
          <dia:attribute name="string">
            <dia:string>##</dia:string>
          </dia:attribute>
          <dia:attribute name="font">
            <dia:font family="sans" style="0" name="Helvetica"/>
          </dia:attribute>
          <dia:attribute name="height">
            <dia:real val="1.6227777153253555"/>
          </dia:attribute>
          <dia:attribute name="pos">
            <dia:point val="38.6475,-6.14446"/>
          </dia:attribute>
          <dia:attribute name="color">
            <dia:color val="#000000ff"/>
          </dia:attribute>
          <dia:attribute name="alignment">
            <dia:enum val="1"/>
          </dia:attribute>
        </dia:composite>
      </dia:attribute>
      <dia:attribute name="valign">
        <dia:enum val="2"/>
      </dia:attribute>
      <dia:connections>
        <dia:connection handle="0" to="O0" connection="19"/>
      </dia:connections>
    </dia:object>
    <dia:object type="Standard - Text" version="1" id="O19">
      <dia:attribute name="obj_pos">
        <dia:point val="41.8425,-6.575"/>
      </dia:attribute>
      <dia:attribute name="obj_bb">
        <dia:rectangle val="41.0175,-7.38726;42.7053,-5.76274"/>
      </dia:attribute>
      <dia:attribute name="text">
        <dia:composite type="text">
          <dia:attribute name="string">
            <dia:string>#11#</dia:string>
          </dia:attribute>
          <dia:attribute name="font">
            <dia:font family="sans" style="0" name="Helvetica"/>
          </dia:attribute>
          <dia:attribute name="height">
            <dia:real val="1.6227777153253555"/>
          </dia:attribute>
          <dia:attribute name="pos">
            <dia:point val="41.8425,-6.14446"/>
          </dia:attribute>
          <dia:attribute name="color">
            <dia:color val="#000000ff"/>
          </dia:attribute>
          <dia:attribute name="alignment">
            <dia:enum val="1"/>
          </dia:attribute>
        </dia:composite>
      </dia:attribute>
      <dia:attribute name="valign">
        <dia:enum val="2"/>
      </dia:attribute>
      <dia:connections>
        <dia:connection handle="0" to="O0" connection="20"/>
      </dia:connections>
    </dia:object>
    <dia:object type="Standard - Text" version="1" id="O20">
      <dia:attribute name="obj_pos">
        <dia:point val="45.0375,-6.575"/>
      </dia:attribute>
      <dia:attribute name="obj_bb">
        <dia:rectangle val="44.2125,-7.38726;45.9003,-5.76274"/>
      </dia:attribute>
      <dia:attribute name="text">
        <dia:composite type="text">
          <dia:attribute name="string">
            <dia:string>#12#</dia:string>
          </dia:attribute>
          <dia:attribute name="font">
            <dia:font family="sans" style="0" name="Helvetica"/>
          </dia:attribute>
          <dia:attribute name="height">
            <dia:real val="1.6227777153253555"/>
          </dia:attribute>
          <dia:attribute name="pos">
            <dia:point val="45.0375,-6.14446"/>
          </dia:attribute>
          <dia:attribute name="color">
            <dia:color val="#000000ff"/>
          </dia:attribute>
          <dia:attribute name="alignment">
            <dia:enum val="1"/>
          </dia:attribute>
        </dia:composite>
      </dia:attribute>
      <dia:attribute name="valign">
        <dia:enum val="2"/>
      </dia:attribute>
      <dia:connections>
        <dia:connection handle="0" to="O0" connection="21"/>
      </dia:connections>
    </dia:object>
    <dia:object type="Standard - Text" version="1" id="O21">
      <dia:attribute name="obj_pos">
        <dia:point val="37.05,-6.575"/>
      </dia:attribute>
      <dia:attribute name="obj_bb">
        <dia:rectangle val="37.05,-7.33059;37.05,-5.81941"/>
      </dia:attribute>
      <dia:attribute name="text">
        <dia:composite type="text">
          <dia:attribute name="string">
            <dia:string>##</dia:string>
          </dia:attribute>
          <dia:attribute name="font">
            <dia:font family="sans" style="0" name="Helvetica"/>
          </dia:attribute>
          <dia:attribute name="height">
            <dia:real val="1.6227777153253555"/>
          </dia:attribute>
          <dia:attribute name="pos">
            <dia:point val="37.05,-6.12557"/>
          </dia:attribute>
          <dia:attribute name="color">
            <dia:color val="#000000ff"/>
          </dia:attribute>
          <dia:attribute name="alignment">
            <dia:enum val="1"/>
          </dia:attribute>
        </dia:composite>
      </dia:attribute>
      <dia:attribute name="valign">
        <dia:enum val="2"/>
      </dia:attribute>
      <dia:connections>
        <dia:connection handle="0" to="O0" connection="8"/>
      </dia:connections>
    </dia:object>
    <dia:object type="Standard - Text" version="1" id="O22">
      <dia:attribute name="obj_pos">
        <dia:point val="48.2325,-6.575"/>
      </dia:attribute>
      <dia:attribute name="obj_bb">
        <dia:rectangle val="47.4075,-7.38726;49.0953,-5.76274"/>
      </dia:attribute>
      <dia:attribute name="text">
        <dia:composite type="text">
          <dia:attribute name="string">
            <dia:string>#13#</dia:string>
          </dia:attribute>
          <dia:attribute name="font">
            <dia:font family="sans" style="0" name="Helvetica"/>
          </dia:attribute>
          <dia:attribute name="height">
            <dia:real val="1.6227777153253555"/>
          </dia:attribute>
          <dia:attribute name="pos">
            <dia:point val="48.2325,-6.14446"/>
          </dia:attribute>
          <dia:attribute name="color">
            <dia:color val="#000000ff"/>
          </dia:attribute>
          <dia:attribute name="alignment">
            <dia:enum val="1"/>
          </dia:attribute>
        </dia:composite>
      </dia:attribute>
      <dia:attribute name="valign">
        <dia:enum val="2"/>
      </dia:attribute>
      <dia:connections>
        <dia:connection handle="0" to="O0" connection="22"/>
      </dia:connections>
    </dia:object>
    <dia:object type="Standard - Text" version="1" id="O23">
      <dia:attribute name="obj_pos">
        <dia:point val="51.4275,-6.575"/>
      </dia:attribute>
      <dia:attribute name="obj_bb">
        <dia:rectangle val="51.3897,-7.38726;51.4275,-5.76274"/>
      </dia:attribute>
      <dia:attribute name="text">
        <dia:composite type="text">
          <dia:attribute name="string">
            <dia:string>##</dia:string>
          </dia:attribute>
          <dia:attribute name="font">
            <dia:font family="sans" style="0" name="Helvetica"/>
          </dia:attribute>
          <dia:attribute name="height">
            <dia:real val="1.6227777153253555"/>
          </dia:attribute>
          <dia:attribute name="pos">
            <dia:point val="51.4275,-6.14446"/>
          </dia:attribute>
          <dia:attribute name="color">
            <dia:color val="#000000ff"/>
          </dia:attribute>
          <dia:attribute name="alignment">
            <dia:enum val="1"/>
          </dia:attribute>
        </dia:composite>
      </dia:attribute>
      <dia:attribute name="valign">
        <dia:enum val="2"/>
      </dia:attribute>
      <dia:connections>
        <dia:connection handle="0" to="O0" connection="23"/>
      </dia:connections>
    </dia:object>
    <dia:object type="Standard - Text" version="1" id="O24">
      <dia:attribute name="obj_pos">
        <dia:point val="54.6225,-6.575"/>
      </dia:attribute>
      <dia:attribute name="obj_bb">
        <dia:rectangle val="53.7975,-7.38726;55.4853,-5.76274"/>
      </dia:attribute>
      <dia:attribute name="text">
        <dia:composite type="text">
          <dia:attribute name="string">
            <dia:string>#15#</dia:string>
          </dia:attribute>
          <dia:attribute name="font">
            <dia:font family="sans" style="0" name="Helvetica"/>
          </dia:attribute>
          <dia:attribute name="height">
            <dia:real val="1.6227777153253555"/>
          </dia:attribute>
          <dia:attribute name="pos">
            <dia:point val="54.6225,-6.14446"/>
          </dia:attribute>
          <dia:attribute name="color">
            <dia:color val="#000000ff"/>
          </dia:attribute>
          <dia:attribute name="alignment">
            <dia:enum val="1"/>
          </dia:attribute>
        </dia:composite>
      </dia:attribute>
      <dia:attribute name="valign">
        <dia:enum val="2"/>
      </dia:attribute>
      <dia:connections>
        <dia:connection handle="0" to="O0" connection="24"/>
      </dia:connections>
    </dia:object>
    <dia:object type="Standard - Text" version="1" id="O25">
      <dia:attribute name="obj_pos">
        <dia:point val="57.8175,-6.575"/>
      </dia:attribute>
      <dia:attribute name="obj_bb">
        <dia:rectangle val="56.9925,-7.33059;58.6425,-5.81941"/>
      </dia:attribute>
      <dia:attribute name="text">
        <dia:composite type="text">
          <dia:attribute name="string">
            <dia:string>#16#</dia:string>
          </dia:attribute>
          <dia:attribute name="font">
            <dia:font family="sans" style="0" name="Helvetica"/>
          </dia:attribute>
          <dia:attribute name="height">
            <dia:real val="1.6227777153253555"/>
          </dia:attribute>
          <dia:attribute name="pos">
            <dia:point val="57.8175,-6.12557"/>
          </dia:attribute>
          <dia:attribute name="color">
            <dia:color val="#000000ff"/>
          </dia:attribute>
          <dia:attribute name="alignment">
            <dia:enum val="1"/>
          </dia:attribute>
        </dia:composite>
      </dia:attribute>
      <dia:attribute name="valign">
        <dia:enum val="2"/>
      </dia:attribute>
      <dia:connections>
        <dia:connection handle="0" to="O0" connection="25"/>
      </dia:connections>
    </dia:object>
    <dia:object type="Standard - Text" version="1" id="O26">
      <dia:attribute name="obj_pos">
        <dia:point val="61.0125,-6.575"/>
      </dia:attribute>
      <dia:attribute name="obj_bb">
        <dia:rectangle val="60.1875,-7.33059;61.8375,-5.81941"/>
      </dia:attribute>
      <dia:attribute name="text">
        <dia:composite type="text">
          <dia:attribute name="string">
            <dia:string>#17#</dia:string>
          </dia:attribute>
          <dia:attribute name="font">
            <dia:font family="sans" style="0" name="Helvetica"/>
          </dia:attribute>
          <dia:attribute name="height">
            <dia:real val="1.6227777153253555"/>
          </dia:attribute>
          <dia:attribute name="pos">
            <dia:point val="61.0125,-6.12557"/>
          </dia:attribute>
          <dia:attribute name="color">
            <dia:color val="#000000ff"/>
          </dia:attribute>
          <dia:attribute name="alignment">
            <dia:enum val="1"/>
          </dia:attribute>
        </dia:composite>
      </dia:attribute>
      <dia:attribute name="valign">
        <dia:enum val="2"/>
      </dia:attribute>
      <dia:connections>
        <dia:connection handle="0" to="O0" connection="26"/>
      </dia:connections>
    </dia:object>
    <dia:object type="Standard - Text" version="1" id="O27">
      <dia:attribute name="obj_pos">
        <dia:point val="64.2075,-6.575"/>
      </dia:attribute>
      <dia:attribute name="obj_bb">
        <dia:rectangle val="63.3825,-7.33059;65.0325,-5.81941"/>
      </dia:attribute>
      <dia:attribute name="text">
        <dia:composite type="text">
          <dia:attribute name="string">
            <dia:string>#18#</dia:string>
          </dia:attribute>
          <dia:attribute name="font">
            <dia:font family="sans" style="0" name="Helvetica"/>
          </dia:attribute>
          <dia:attribute name="height">
            <dia:real val="1.6227777153253555"/>
          </dia:attribute>
          <dia:attribute name="pos">
            <dia:point val="64.2075,-6.12557"/>
          </dia:attribute>
          <dia:attribute name="color">
            <dia:color val="#000000ff"/>
          </dia:attribute>
          <dia:attribute name="alignment">
            <dia:enum val="1"/>
          </dia:attribute>
        </dia:composite>
      </dia:attribute>
      <dia:attribute name="valign">
        <dia:enum val="2"/>
      </dia:attribute>
      <dia:connections>
        <dia:connection handle="0" to="O0" connection="27"/>
      </dia:connections>
    </dia:object>
    <dia:object type="Standard - Text" version="1" id="O28">
      <dia:attribute name="obj_pos">
        <dia:point val="67.4025,-6.575"/>
      </dia:attribute>
      <dia:attribute name="obj_bb">
        <dia:rectangle val="66.5775,-7.33059;68.2275,-5.81941"/>
      </dia:attribute>
      <dia:attribute name="text">
        <dia:composite type="text">
          <dia:attribute name="string">
            <dia:string>#19#</dia:string>
          </dia:attribute>
          <dia:attribute name="font">
            <dia:font family="sans" style="0" name="Helvetica"/>
          </dia:attribute>
          <dia:attribute name="height">
            <dia:real val="1.6227777153253555"/>
          </dia:attribute>
          <dia:attribute name="pos">
            <dia:point val="67.4025,-6.12557"/>
          </dia:attribute>
          <dia:attribute name="color">
            <dia:color val="#000000ff"/>
          </dia:attribute>
          <dia:attribute name="alignment">
            <dia:enum val="1"/>
          </dia:attribute>
        </dia:composite>
      </dia:attribute>
      <dia:attribute name="valign">
        <dia:enum val="2"/>
      </dia:attribute>
      <dia:connections>
        <dia:connection handle="0" to="O0" connection="28"/>
      </dia:connections>
    </dia:object>
    <dia:object type="Standard - Text" version="1" id="O29">
      <dia:attribute name="obj_pos">
        <dia:point val="6.6975,-6.575"/>
      </dia:attribute>
      <dia:attribute name="obj_bb">
        <dia:rectangle val="6.6975,-7.16905;6.6975,-6.42406"/>
      </dia:attribute>
      <dia:attribute name="text">
        <dia:composite type="text">
          <dia:attribute name="string">
            <dia:string>##</dia:string>
          </dia:attribute>
          <dia:attribute name="font">
            <dia:font family="sans" style="0" name="Helvetica"/>
          </dia:attribute>
          <dia:attribute name="height">
            <dia:real val="0.80000000000000004"/>
          </dia:attribute>
          <dia:attribute name="pos">
            <dia:point val="6.6975,-6.575"/>
          </dia:attribute>
          <dia:attribute name="color">
            <dia:color val="#000000ff"/>
          </dia:attribute>
          <dia:attribute name="alignment">
            <dia:enum val="0"/>
          </dia:attribute>
        </dia:composite>
      </dia:attribute>
      <dia:attribute name="valign">
        <dia:enum val="3"/>
      </dia:attribute>
      <dia:connections>
        <dia:connection handle="0" to="O0" connection="9"/>
      </dia:connections>
    </dia:object>
    <dia:object type="Standard - Text" version="1" id="O30">
      <dia:attribute name="obj_pos">
        <dia:point val="6.6975,-6.575"/>
      </dia:attribute>
      <dia:attribute name="obj_bb">
        <dia:rectangle val="6.6975,-7.16905;6.6975,-6.42406"/>
      </dia:attribute>
      <dia:attribute name="text">
        <dia:composite type="text">
          <dia:attribute name="string">
            <dia:string>##</dia:string>
          </dia:attribute>
          <dia:attribute name="font">
            <dia:font family="sans" style="0" name="Helvetica"/>
          </dia:attribute>
          <dia:attribute name="height">
            <dia:real val="0.80000000000000004"/>
          </dia:attribute>
          <dia:attribute name="pos">
            <dia:point val="6.6975,-6.575"/>
          </dia:attribute>
          <dia:attribute name="color">
            <dia:color val="#000000ff"/>
          </dia:attribute>
          <dia:attribute name="alignment">
            <dia:enum val="0"/>
          </dia:attribute>
        </dia:composite>
      </dia:attribute>
      <dia:attribute name="valign">
        <dia:enum val="3"/>
      </dia:attribute>
      <dia:connections>
        <dia:connection handle="0" to="O0" connection="9"/>
      </dia:connections>
    </dia:object>
    <dia:object type="Standard - Text" version="1" id="O31">
      <dia:attribute name="obj_pos">
        <dia:point val="6.6975,-6.575"/>
      </dia:attribute>
      <dia:attribute name="obj_bb">
        <dia:rectangle val="6.6975,-7.16905;6.6975,-6.42406"/>
      </dia:attribute>
      <dia:attribute name="text">
        <dia:composite type="text">
          <dia:attribute name="string">
            <dia:string>##</dia:string>
          </dia:attribute>
          <dia:attribute name="font">
            <dia:font family="sans" style="0" name="Helvetica"/>
          </dia:attribute>
          <dia:attribute name="height">
            <dia:real val="0.80000000000000004"/>
          </dia:attribute>
          <dia:attribute name="pos">
            <dia:point val="6.6975,-6.575"/>
          </dia:attribute>
          <dia:attribute name="color">
            <dia:color val="#000000ff"/>
          </dia:attribute>
          <dia:attribute name="alignment">
            <dia:enum val="0"/>
          </dia:attribute>
        </dia:composite>
      </dia:attribute>
      <dia:attribute name="valign">
        <dia:enum val="3"/>
      </dia:attribute>
      <dia:connections>
        <dia:connection handle="0" to="O0" connection="9"/>
      </dia:connections>
    </dia:object>
    <dia:object type="Standard - Text" version="1" id="O32">
      <dia:attribute name="obj_pos">
        <dia:point val="19.4775,-6.575"/>
      </dia:attribute>
      <dia:attribute name="obj_bb">
        <dia:rectangle val="19.4775,-7.16905;19.4775,-6.42406"/>
      </dia:attribute>
      <dia:attribute name="text">
        <dia:composite type="text">
          <dia:attribute name="string">
            <dia:string>##</dia:string>
          </dia:attribute>
          <dia:attribute name="font">
            <dia:font family="sans" style="0" name="Helvetica"/>
          </dia:attribute>
          <dia:attribute name="height">
            <dia:real val="0.80000000000000004"/>
          </dia:attribute>
          <dia:attribute name="pos">
            <dia:point val="19.4775,-6.575"/>
          </dia:attribute>
          <dia:attribute name="color">
            <dia:color val="#000000ff"/>
          </dia:attribute>
          <dia:attribute name="alignment">
            <dia:enum val="0"/>
          </dia:attribute>
        </dia:composite>
      </dia:attribute>
      <dia:attribute name="valign">
        <dia:enum val="3"/>
      </dia:attribute>
      <dia:connections>
        <dia:connection handle="0" to="O0" connection="13"/>
      </dia:connections>
    </dia:object>
    <dia:object type="Standard - Text" version="1" id="O33">
      <dia:attribute name="obj_pos">
        <dia:point val="19.4775,-6.575"/>
      </dia:attribute>
      <dia:attribute name="obj_bb">
        <dia:rectangle val="19.4775,-7.16905;19.4775,-6.42406"/>
      </dia:attribute>
      <dia:attribute name="text">
        <dia:composite type="text">
          <dia:attribute name="string">
            <dia:string>##</dia:string>
          </dia:attribute>
          <dia:attribute name="font">
            <dia:font family="sans" style="0" name="Helvetica"/>
          </dia:attribute>
          <dia:attribute name="height">
            <dia:real val="0.80000000000000004"/>
          </dia:attribute>
          <dia:attribute name="pos">
            <dia:point val="19.4775,-6.575"/>
          </dia:attribute>
          <dia:attribute name="color">
            <dia:color val="#000000ff"/>
          </dia:attribute>
          <dia:attribute name="alignment">
            <dia:enum val="0"/>
          </dia:attribute>
        </dia:composite>
      </dia:attribute>
      <dia:attribute name="valign">
        <dia:enum val="3"/>
      </dia:attribute>
      <dia:connections>
        <dia:connection handle="0" to="O0" connection="13"/>
      </dia:connections>
    </dia:object>
    <dia:object type="Standard - Text" version="1" id="O34">
      <dia:attribute name="obj_pos">
        <dia:point val="22.95,-6.6"/>
      </dia:attribute>
      <dia:attribute name="obj_bb">
        <dia:rectangle val="22.95,-7.19405;22.95,-6.44906"/>
      </dia:attribute>
      <dia:attribute name="text">
        <dia:composite type="text">
          <dia:attribute name="string">
            <dia:string>##</dia:string>
          </dia:attribute>
          <dia:attribute name="font">
            <dia:font family="sans" style="0" name="Helvetica"/>
          </dia:attribute>
          <dia:attribute name="height">
            <dia:real val="0.80000000000000004"/>
          </dia:attribute>
          <dia:attribute name="pos">
            <dia:point val="22.95,-6.6"/>
          </dia:attribute>
          <dia:attribute name="color">
            <dia:color val="#000000ff"/>
          </dia:attribute>
          <dia:attribute name="alignment">
            <dia:enum val="0"/>
          </dia:attribute>
        </dia:composite>
      </dia:attribute>
      <dia:attribute name="valign">
        <dia:enum val="3"/>
      </dia:attribute>
    </dia:object>
    <dia:object type="Standard - Text" version="1" id="O35">
      <dia:attribute name="obj_pos">
        <dia:point val="25.8675,-6.575"/>
      </dia:attribute>
      <dia:attribute name="obj_bb">
        <dia:rectangle val="25.8675,-7.16905;25.8675,-6.42406"/>
      </dia:attribute>
      <dia:attribute name="text">
        <dia:composite type="text">
          <dia:attribute name="string">
            <dia:string>##</dia:string>
          </dia:attribute>
          <dia:attribute name="font">
            <dia:font family="sans" style="0" name="Helvetica"/>
          </dia:attribute>
          <dia:attribute name="height">
            <dia:real val="0.80000000000000004"/>
          </dia:attribute>
          <dia:attribute name="pos">
            <dia:point val="25.8675,-6.575"/>
          </dia:attribute>
          <dia:attribute name="color">
            <dia:color val="#000000ff"/>
          </dia:attribute>
          <dia:attribute name="alignment">
            <dia:enum val="0"/>
          </dia:attribute>
        </dia:composite>
      </dia:attribute>
      <dia:attribute name="valign">
        <dia:enum val="3"/>
      </dia:attribute>
      <dia:connections>
        <dia:connection handle="0" to="O0" connection="15"/>
      </dia:connections>
    </dia:object>
  </dia:layer>
</dia:diagram>
