<?xml version="1.0" encoding="UTF-8"?>
<dia:diagram xmlns:dia="http://www.lysator.liu.se/~alla/dia/">
  <dia:diagramdata>
    <dia:attribute name="background">
      <dia:color val="#ffffffff"/>
    </dia:attribute>
    <dia:attribute name="pagebreak">
      <dia:color val="#000099ff"/>
    </dia:attribute>
    <dia:attribute name="paper">
      <dia:composite type="paper">
        <dia:attribute name="name">
          <dia:string>#A4#</dia:string>
        </dia:attribute>
        <dia:attribute name="tmargin">
          <dia:real val="2.8222000598907471"/>
        </dia:attribute>
        <dia:attribute name="bmargin">
          <dia:real val="2.8222000598907471"/>
        </dia:attribute>
        <dia:attribute name="lmargin">
          <dia:real val="2.8222000598907471"/>
        </dia:attribute>
        <dia:attribute name="rmargin">
          <dia:real val="2.8222000598907471"/>
        </dia:attribute>
        <dia:attribute name="is_portrait">
          <dia:boolean val="true"/>
        </dia:attribute>
        <dia:attribute name="scaling">
          <dia:real val="1"/>
        </dia:attribute>
        <dia:attribute name="fitto">
          <dia:boolean val="false"/>
        </dia:attribute>
      </dia:composite>
    </dia:attribute>
    <dia:attribute name="grid">
      <dia:composite type="grid">
        <dia:attribute name="dynamic">
          <dia:boolean val="true"/>
        </dia:attribute>
        <dia:attribute name="width_x">
          <dia:real val="1"/>
        </dia:attribute>
        <dia:attribute name="width_y">
          <dia:real val="1"/>
        </dia:attribute>
        <dia:attribute name="visible_x">
          <dia:int val="1"/>
        </dia:attribute>
        <dia:attribute name="visible_y">
          <dia:int val="1"/>
        </dia:attribute>
        <dia:composite type="color"/>
      </dia:composite>
    </dia:attribute>
    <dia:attribute name="color">
      <dia:color val="#d8e5e5ff"/>
    </dia:attribute>
    <dia:attribute name="guides">
      <dia:composite type="guides">
        <dia:attribute name="hguides"/>
        <dia:attribute name="vguides"/>
      </dia:composite>
    </dia:attribute>
    <dia:attribute name="display">
      <dia:composite type="display">
        <dia:attribute name="antialiased">
          <dia:boolean val="false"/>
        </dia:attribute>
        <dia:attribute name="snap-to-grid">
          <dia:boolean val="false"/>
        </dia:attribute>
        <dia:attribute name="snap-to-object">
          <dia:boolean val="true"/>
        </dia:attribute>
        <dia:attribute name="show-grid">
          <dia:boolean val="true"/>
        </dia:attribute>
        <dia:attribute name="show-connection-points">
          <dia:boolean val="true"/>
        </dia:attribute>
      </dia:composite>
    </dia:attribute>
  </dia:diagramdata>
  <dia:layer name="Background" visible="true" connectable="true" active="true">
    <dia:object type="Misc - Grid" version="0" id="O0">
      <dia:attribute name="obj_pos">
        <dia:point val="3.2,1.6"/>
      </dia:attribute>
      <dia:attribute name="obj_bb">
        <dia:rectangle val="3.15,1.55;67.15,4.6"/>
      </dia:attribute>
      <dia:attribute name="meta">
        <dia:composite type="dict"/>
      </dia:attribute>
      <dia:attribute name="elem_corner">
        <dia:point val="3.2,1.6"/>
      </dia:attribute>
      <dia:attribute name="elem_width">
        <dia:real val="63.899999999999999"/>
      </dia:attribute>
      <dia:attribute name="elem_height">
        <dia:real val="2.9500000000000002"/>
      </dia:attribute>
      <dia:attribute name="line_width">
        <dia:real val="0.10000000000000001"/>
      </dia:attribute>
      <dia:attribute name="line_colour">
        <dia:color val="#000000ff"/>
      </dia:attribute>
      <dia:attribute name="fill_colour">
        <dia:color val="#ffffff00"/>
      </dia:attribute>
      <dia:attribute name="show_background">
        <dia:boolean val="false"/>
      </dia:attribute>
      <dia:attribute name="grid_rows">
        <dia:int val="1"/>
      </dia:attribute>
      <dia:attribute name="grid_cols">
        <dia:int val="20"/>
      </dia:attribute>
      <dia:attribute name="gridline_colour">
        <dia:color val="#000000ff"/>
      </dia:attribute>
      <dia:attribute name="gridline_width">
        <dia:real val="0.10000000000000001"/>
      </dia:attribute>
    </dia:object>
    <dia:object type="Standard - Text" version="1" id="O1">
      <dia:attribute name="obj_pos">
        <dia:point val="35.15,3.075"/>
      </dia:attribute>
      <dia:attribute name="obj_bb">
        <dia:rectangle val="35.15,2.3194;35.15,3.8306"/>
      </dia:attribute>
      <dia:attribute name="text">
        <dia:composite type="text">
          <dia:attribute name="string">
            <dia:string>##</dia:string>
          </dia:attribute>
          <dia:attribute name="font">
            <dia:font family="sans" style="0" name="Helvetica"/>
          </dia:attribute>
          <dia:attribute name="height">
            <dia:real val="1.6227777153253555"/>
          </dia:attribute>
          <dia:attribute name="pos">
            <dia:point val="35.15,3.52443"/>
          </dia:attribute>
          <dia:attribute name="color">
            <dia:color val="#000000ff"/>
          </dia:attribute>
          <dia:attribute name="alignment">
            <dia:enum val="1"/>
          </dia:attribute>
        </dia:composite>
      </dia:attribute>
      <dia:attribute name="valign">
        <dia:enum val="2"/>
      </dia:attribute>
      <dia:connections>
        <dia:connection handle="0" to="O0" connection="8"/>
      </dia:connections>
    </dia:object>
    <dia:object type="Standard - Text" version="1" id="O2">
      <dia:attribute name="obj_pos">
        <dia:point val="35.15,3.075"/>
      </dia:attribute>
      <dia:attribute name="obj_bb">
        <dia:rectangle val="35.15,2.3194;35.15,3.8306"/>
      </dia:attribute>
      <dia:attribute name="text">
        <dia:composite type="text">
          <dia:attribute name="string">
            <dia:string>##</dia:string>
          </dia:attribute>
          <dia:attribute name="font">
            <dia:font family="sans" style="0" name="Helvetica"/>
          </dia:attribute>
          <dia:attribute name="height">
            <dia:real val="1.6227777153253555"/>
          </dia:attribute>
          <dia:attribute name="pos">
            <dia:point val="35.15,3.52443"/>
          </dia:attribute>
          <dia:attribute name="color">
            <dia:color val="#000000ff"/>
          </dia:attribute>
          <dia:attribute name="alignment">
            <dia:enum val="1"/>
          </dia:attribute>
        </dia:composite>
      </dia:attribute>
      <dia:attribute name="valign">
        <dia:enum val="2"/>
      </dia:attribute>
      <dia:connections>
        <dia:connection handle="0" to="O0" connection="8"/>
      </dia:connections>
    </dia:object>
    <dia:object type="Standard - Text" version="1" id="O3">
      <dia:attribute name="obj_pos">
        <dia:point val="35.15,3.075"/>
      </dia:attribute>
      <dia:attribute name="obj_bb">
        <dia:rectangle val="35.15,2.3194;35.15,3.8306"/>
      </dia:attribute>
      <dia:attribute name="text">
        <dia:composite type="text">
          <dia:attribute name="string">
            <dia:string>##</dia:string>
          </dia:attribute>
          <dia:attribute name="font">
            <dia:font family="sans" style="0" name="Helvetica"/>
          </dia:attribute>
          <dia:attribute name="height">
            <dia:real val="1.6227777153253555"/>
          </dia:attribute>
          <dia:attribute name="pos">
            <dia:point val="35.15,3.52443"/>
          </dia:attribute>
          <dia:attribute name="color">
            <dia:color val="#000000ff"/>
          </dia:attribute>
          <dia:attribute name="alignment">
            <dia:enum val="1"/>
          </dia:attribute>
        </dia:composite>
      </dia:attribute>
      <dia:attribute name="valign">
        <dia:enum val="2"/>
      </dia:attribute>
      <dia:connections>
        <dia:connection handle="0" to="O0" connection="8"/>
      </dia:connections>
    </dia:object>
    <dia:object type="Standard - Text" version="1" id="O4">
      <dia:attribute name="obj_pos">
        <dia:point val="4.7975,3.075"/>
      </dia:attribute>
      <dia:attribute name="obj_bb">
        <dia:rectangle val="4.385,2.3194;5.21,3.8306"/>
      </dia:attribute>
      <dia:attribute name="text">
        <dia:composite type="text">
          <dia:attribute name="string">
            <dia:string>#1#</dia:string>
          </dia:attribute>
          <dia:attribute name="font">
            <dia:font family="sans" style="0" name="Helvetica"/>
          </dia:attribute>
          <dia:attribute name="height">
            <dia:real val="1.6227777153253555"/>
          </dia:attribute>
          <dia:attribute name="pos">
            <dia:point val="4.7975,3.52443"/>
          </dia:attribute>
          <dia:attribute name="color">
            <dia:color val="#000000ff"/>
          </dia:attribute>
          <dia:attribute name="alignment">
            <dia:enum val="1"/>
          </dia:attribute>
        </dia:composite>
      </dia:attribute>
      <dia:attribute name="valign">
        <dia:enum val="2"/>
      </dia:attribute>
      <dia:connections>
        <dia:connection handle="0" to="O0" connection="9"/>
      </dia:connections>
    </dia:object>
    <dia:object type="Standard - Text" version="1" id="O5">
      <dia:attribute name="obj_pos">
        <dia:point val="7.9925,3.075"/>
      </dia:attribute>
      <dia:attribute name="obj_bb">
        <dia:rectangle val="7.58,2.3194;8.405,3.8306"/>
      </dia:attribute>
      <dia:attribute name="text">
        <dia:composite type="text">
          <dia:attribute name="string">
            <dia:string>#3#</dia:string>
          </dia:attribute>
          <dia:attribute name="font">
            <dia:font family="sans" style="0" name="Helvetica"/>
          </dia:attribute>
          <dia:attribute name="height">
            <dia:real val="1.6227777153253555"/>
          </dia:attribute>
          <dia:attribute name="pos">
            <dia:point val="7.9925,3.52443"/>
          </dia:attribute>
          <dia:attribute name="color">
            <dia:color val="#000000ff"/>
          </dia:attribute>
          <dia:attribute name="alignment">
            <dia:enum val="1"/>
          </dia:attribute>
        </dia:composite>
      </dia:attribute>
      <dia:attribute name="valign">
        <dia:enum val="2"/>
      </dia:attribute>
      <dia:connections>
        <dia:connection handle="0" to="O0" connection="10"/>
      </dia:connections>
    </dia:object>
    <dia:object type="Standard - Text" version="1" id="O6">
      <dia:attribute name="obj_pos">
        <dia:point val="11.1875,3.075"/>
      </dia:attribute>
      <dia:attribute name="obj_bb">
        <dia:rectangle val="10.775,2.3194;11.6,3.8306"/>
      </dia:attribute>
      <dia:attribute name="text">
        <dia:composite type="text">
          <dia:attribute name="string">
            <dia:string>#4#</dia:string>
          </dia:attribute>
          <dia:attribute name="font">
            <dia:font family="sans" style="0" name="Helvetica"/>
          </dia:attribute>
          <dia:attribute name="height">
            <dia:real val="1.6227777153253555"/>
          </dia:attribute>
          <dia:attribute name="pos">
            <dia:point val="11.1875,3.52443"/>
          </dia:attribute>
          <dia:attribute name="color">
            <dia:color val="#000000ff"/>
          </dia:attribute>
          <dia:attribute name="alignment">
            <dia:enum val="1"/>
          </dia:attribute>
        </dia:composite>
      </dia:attribute>
      <dia:attribute name="valign">
        <dia:enum val="2"/>
      </dia:attribute>
      <dia:connections>
        <dia:connection handle="0" to="O0" connection="11"/>
      </dia:connections>
    </dia:object>
    <dia:object type="Standard - Text" version="1" id="O7">
      <dia:attribute name="obj_pos">
        <dia:point val="14.3825,3.075"/>
      </dia:attribute>
      <dia:attribute name="obj_bb">
        <dia:rectangle val="13.97,2.3194;14.795,3.8306"/>
      </dia:attribute>
      <dia:attribute name="text">
        <dia:composite type="text">
          <dia:attribute name="string">
            <dia:string>#4#</dia:string>
          </dia:attribute>
          <dia:attribute name="font">
            <dia:font family="sans" style="0" name="Helvetica"/>
          </dia:attribute>
          <dia:attribute name="height">
            <dia:real val="1.6227777153253555"/>
          </dia:attribute>
          <dia:attribute name="pos">
            <dia:point val="14.3825,3.52443"/>
          </dia:attribute>
          <dia:attribute name="color">
            <dia:color val="#000000ff"/>
          </dia:attribute>
          <dia:attribute name="alignment">
            <dia:enum val="1"/>
          </dia:attribute>
        </dia:composite>
      </dia:attribute>
      <dia:attribute name="valign">
        <dia:enum val="2"/>
      </dia:attribute>
      <dia:connections>
        <dia:connection handle="0" to="O0" connection="12"/>
      </dia:connections>
    </dia:object>
    <dia:object type="Standard - Text" version="1" id="O8">
      <dia:attribute name="obj_pos">
        <dia:point val="17.5775,3.075"/>
      </dia:attribute>
      <dia:attribute name="obj_bb">
        <dia:rectangle val="17.165,2.3194;17.99,3.8306"/>
      </dia:attribute>
      <dia:attribute name="text">
        <dia:composite type="text">
          <dia:attribute name="string">
            <dia:string>#6#</dia:string>
          </dia:attribute>
          <dia:attribute name="font">
            <dia:font family="sans" style="0" name="Helvetica"/>
          </dia:attribute>
          <dia:attribute name="height">
            <dia:real val="1.6227777153253555"/>
          </dia:attribute>
          <dia:attribute name="pos">
            <dia:point val="17.5775,3.52443"/>
          </dia:attribute>
          <dia:attribute name="color">
            <dia:color val="#000000ff"/>
          </dia:attribute>
          <dia:attribute name="alignment">
            <dia:enum val="1"/>
          </dia:attribute>
        </dia:composite>
      </dia:attribute>
      <dia:attribute name="valign">
        <dia:enum val="2"/>
      </dia:attribute>
      <dia:connections>
        <dia:connection handle="0" to="O0" connection="13"/>
      </dia:connections>
    </dia:object>
    <dia:object type="Standard - Text" version="1" id="O9">
      <dia:attribute name="obj_pos">
        <dia:point val="35.15,3.075"/>
      </dia:attribute>
      <dia:attribute name="obj_bb">
        <dia:rectangle val="35.15,2.3194;35.15,3.8306"/>
      </dia:attribute>
      <dia:attribute name="text">
        <dia:composite type="text">
          <dia:attribute name="string">
            <dia:string>##</dia:string>
          </dia:attribute>
          <dia:attribute name="font">
            <dia:font family="sans" style="0" name="Helvetica"/>
          </dia:attribute>
          <dia:attribute name="height">
            <dia:real val="1.6227777153253555"/>
          </dia:attribute>
          <dia:attribute name="pos">
            <dia:point val="35.15,3.52443"/>
          </dia:attribute>
          <dia:attribute name="color">
            <dia:color val="#000000ff"/>
          </dia:attribute>
          <dia:attribute name="alignment">
            <dia:enum val="1"/>
          </dia:attribute>
        </dia:composite>
      </dia:attribute>
      <dia:attribute name="valign">
        <dia:enum val="2"/>
      </dia:attribute>
      <dia:connections>
        <dia:connection handle="0" to="O0" connection="8"/>
      </dia:connections>
    </dia:object>
    <dia:object type="Standard - Text" version="1" id="O10">
      <dia:attribute name="obj_pos">
        <dia:point val="20.7725,3.075"/>
      </dia:attribute>
      <dia:attribute name="obj_bb">
        <dia:rectangle val="20.36,2.3194;21.185,3.8306"/>
      </dia:attribute>
      <dia:attribute name="text">
        <dia:composite type="text">
          <dia:attribute name="string">
            <dia:string>#8#</dia:string>
          </dia:attribute>
          <dia:attribute name="font">
            <dia:font family="sans" style="0" name="Helvetica"/>
          </dia:attribute>
          <dia:attribute name="height">
            <dia:real val="1.6227777153253555"/>
          </dia:attribute>
          <dia:attribute name="pos">
            <dia:point val="20.7725,3.52443"/>
          </dia:attribute>
          <dia:attribute name="color">
            <dia:color val="#000000ff"/>
          </dia:attribute>
          <dia:attribute name="alignment">
            <dia:enum val="1"/>
          </dia:attribute>
        </dia:composite>
      </dia:attribute>
      <dia:attribute name="valign">
        <dia:enum val="2"/>
      </dia:attribute>
      <dia:connections>
        <dia:connection handle="0" to="O0" connection="14"/>
      </dia:connections>
    </dia:object>
    <dia:object type="Standard - Text" version="1" id="O11">
      <dia:attribute name="obj_pos">
        <dia:point val="35.15,3.075"/>
      </dia:attribute>
      <dia:attribute name="obj_bb">
        <dia:rectangle val="35.15,2.3194;35.15,3.8306"/>
      </dia:attribute>
      <dia:attribute name="text">
        <dia:composite type="text">
          <dia:attribute name="string">
            <dia:string>##</dia:string>
          </dia:attribute>
          <dia:attribute name="font">
            <dia:font family="sans" style="0" name="Helvetica"/>
          </dia:attribute>
          <dia:attribute name="height">
            <dia:real val="1.6227777153253555"/>
          </dia:attribute>
          <dia:attribute name="pos">
            <dia:point val="35.15,3.52443"/>
          </dia:attribute>
          <dia:attribute name="color">
            <dia:color val="#000000ff"/>
          </dia:attribute>
          <dia:attribute name="alignment">
            <dia:enum val="1"/>
          </dia:attribute>
        </dia:composite>
      </dia:attribute>
      <dia:attribute name="valign">
        <dia:enum val="2"/>
      </dia:attribute>
      <dia:connections>
        <dia:connection handle="0" to="O0" connection="8"/>
      </dia:connections>
    </dia:object>
    <dia:object type="Standard - Text" version="1" id="O12">
      <dia:attribute name="obj_pos">
        <dia:point val="23.9675,3.075"/>
      </dia:attribute>
      <dia:attribute name="obj_bb">
        <dia:rectangle val="23.555,2.3194;24.38,3.8306"/>
      </dia:attribute>
      <dia:attribute name="text">
        <dia:composite type="text">
          <dia:attribute name="string">
            <dia:string>#8#</dia:string>
          </dia:attribute>
          <dia:attribute name="font">
            <dia:font family="sans" style="0" name="Helvetica"/>
          </dia:attribute>
          <dia:attribute name="height">
            <dia:real val="1.6227777153253555"/>
          </dia:attribute>
          <dia:attribute name="pos">
            <dia:point val="23.9675,3.52443"/>
          </dia:attribute>
          <dia:attribute name="color">
            <dia:color val="#000000ff"/>
          </dia:attribute>
          <dia:attribute name="alignment">
            <dia:enum val="1"/>
          </dia:attribute>
        </dia:composite>
      </dia:attribute>
      <dia:attribute name="valign">
        <dia:enum val="2"/>
      </dia:attribute>
      <dia:connections>
        <dia:connection handle="0" to="O0" connection="15"/>
      </dia:connections>
    </dia:object>
    <dia:object type="Standard - Text" version="1" id="O13">
      <dia:attribute name="obj_pos">
        <dia:point val="27.1625,3.075"/>
      </dia:attribute>
      <dia:attribute name="obj_bb">
        <dia:rectangle val="26.75,2.3194;27.575,3.8306"/>
      </dia:attribute>
      <dia:attribute name="text">
        <dia:composite type="text">
          <dia:attribute name="string">
            <dia:string>#9#</dia:string>
          </dia:attribute>
          <dia:attribute name="font">
            <dia:font family="sans" style="0" name="Helvetica"/>
          </dia:attribute>
          <dia:attribute name="height">
            <dia:real val="1.6227777153253555"/>
          </dia:attribute>
          <dia:attribute name="pos">
            <dia:point val="27.1625,3.52443"/>
          </dia:attribute>
          <dia:attribute name="color">
            <dia:color val="#000000ff"/>
          </dia:attribute>
          <dia:attribute name="alignment">
            <dia:enum val="1"/>
          </dia:attribute>
        </dia:composite>
      </dia:attribute>
      <dia:attribute name="valign">
        <dia:enum val="2"/>
      </dia:attribute>
      <dia:connections>
        <dia:connection handle="0" to="O0" connection="16"/>
      </dia:connections>
    </dia:object>
    <dia:object type="Standard - Text" version="1" id="O14">
      <dia:attribute name="obj_pos">
        <dia:point val="35.15,3.075"/>
      </dia:attribute>
      <dia:attribute name="obj_bb">
        <dia:rectangle val="35.15,2.3194;35.15,3.8306"/>
      </dia:attribute>
      <dia:attribute name="text">
        <dia:composite type="text">
          <dia:attribute name="string">
            <dia:string>##</dia:string>
          </dia:attribute>
          <dia:attribute name="font">
            <dia:font family="sans" style="0" name="Helvetica"/>
          </dia:attribute>
          <dia:attribute name="height">
            <dia:real val="1.6227777153253555"/>
          </dia:attribute>
          <dia:attribute name="pos">
            <dia:point val="35.15,3.52443"/>
          </dia:attribute>
          <dia:attribute name="color">
            <dia:color val="#000000ff"/>
          </dia:attribute>
          <dia:attribute name="alignment">
            <dia:enum val="1"/>
          </dia:attribute>
        </dia:composite>
      </dia:attribute>
      <dia:attribute name="valign">
        <dia:enum val="2"/>
      </dia:attribute>
      <dia:connections>
        <dia:connection handle="0" to="O0" connection="8"/>
      </dia:connections>
    </dia:object>
    <dia:object type="Standard - Text" version="1" id="O15">
      <dia:attribute name="obj_pos">
        <dia:point val="30.3575,3.075"/>
      </dia:attribute>
      <dia:attribute name="obj_bb">
        <dia:rectangle val="29.945,2.3194;30.77,3.8306"/>
      </dia:attribute>
      <dia:attribute name="text">
        <dia:composite type="text">
          <dia:attribute name="string">
            <dia:string>#9#</dia:string>
          </dia:attribute>
          <dia:attribute name="font">
            <dia:font family="sans" style="0" name="Helvetica"/>
          </dia:attribute>
          <dia:attribute name="height">
            <dia:real val="1.6227777153253555"/>
          </dia:attribute>
          <dia:attribute name="pos">
            <dia:point val="30.3575,3.52443"/>
          </dia:attribute>
          <dia:attribute name="color">
            <dia:color val="#000000ff"/>
          </dia:attribute>
          <dia:attribute name="alignment">
            <dia:enum val="1"/>
          </dia:attribute>
        </dia:composite>
      </dia:attribute>
      <dia:attribute name="valign">
        <dia:enum val="2"/>
      </dia:attribute>
      <dia:connections>
        <dia:connection handle="0" to="O0" connection="17"/>
      </dia:connections>
    </dia:object>
    <dia:object type="Standard - Text" version="1" id="O16">
      <dia:attribute name="obj_pos">
        <dia:point val="33.5525,3.075"/>
      </dia:attribute>
      <dia:attribute name="obj_bb">
        <dia:rectangle val="32.7275,2.3194;34.3775,3.8306"/>
      </dia:attribute>
      <dia:attribute name="text">
        <dia:composite type="text">
          <dia:attribute name="string">
            <dia:string>#11#</dia:string>
          </dia:attribute>
          <dia:attribute name="font">
            <dia:font family="sans" style="0" name="Helvetica"/>
          </dia:attribute>
          <dia:attribute name="height">
            <dia:real val="1.6227777153253555"/>
          </dia:attribute>
          <dia:attribute name="pos">
            <dia:point val="33.5525,3.52443"/>
          </dia:attribute>
          <dia:attribute name="color">
            <dia:color val="#000000ff"/>
          </dia:attribute>
          <dia:attribute name="alignment">
            <dia:enum val="1"/>
          </dia:attribute>
        </dia:composite>
      </dia:attribute>
      <dia:attribute name="valign">
        <dia:enum val="2"/>
      </dia:attribute>
      <dia:connections>
        <dia:connection handle="0" to="O0" connection="18"/>
      </dia:connections>
    </dia:object>
    <dia:object type="Standard - Text" version="1" id="O17">
      <dia:attribute name="obj_pos">
        <dia:point val="33.9,2.8"/>
      </dia:attribute>
      <dia:attribute name="obj_bb">
        <dia:rectangle val="33.9,2.0444;33.9,3.5556"/>
      </dia:attribute>
      <dia:attribute name="text">
        <dia:composite type="text">
          <dia:attribute name="string">
            <dia:string>##</dia:string>
          </dia:attribute>
          <dia:attribute name="font">
            <dia:font family="sans" style="0" name="Helvetica"/>
          </dia:attribute>
          <dia:attribute name="height">
            <dia:real val="1.6227777153253555"/>
          </dia:attribute>
          <dia:attribute name="pos">
            <dia:point val="33.9,3.24943"/>
          </dia:attribute>
          <dia:attribute name="color">
            <dia:color val="#000000ff"/>
          </dia:attribute>
          <dia:attribute name="alignment">
            <dia:enum val="1"/>
          </dia:attribute>
        </dia:composite>
      </dia:attribute>
      <dia:attribute name="valign">
        <dia:enum val="2"/>
      </dia:attribute>
    </dia:object>
    <dia:object type="Standard - Text" version="1" id="O18">
      <dia:attribute name="obj_pos">
        <dia:point val="34,2.95"/>
      </dia:attribute>
      <dia:attribute name="obj_bb">
        <dia:rectangle val="34,2.1944;34,3.7056"/>
      </dia:attribute>
      <dia:attribute name="text">
        <dia:composite type="text">
          <dia:attribute name="string">
            <dia:string>##</dia:string>
          </dia:attribute>
          <dia:attribute name="font">
            <dia:font family="sans" style="0" name="Helvetica"/>
          </dia:attribute>
          <dia:attribute name="height">
            <dia:real val="1.6227777153253555"/>
          </dia:attribute>
          <dia:attribute name="pos">
            <dia:point val="34,3.39943"/>
          </dia:attribute>
          <dia:attribute name="color">
            <dia:color val="#000000ff"/>
          </dia:attribute>
          <dia:attribute name="alignment">
            <dia:enum val="1"/>
          </dia:attribute>
        </dia:composite>
      </dia:attribute>
      <dia:attribute name="valign">
        <dia:enum val="2"/>
      </dia:attribute>
    </dia:object>
    <dia:object type="Standard - Text" version="1" id="O19">
      <dia:attribute name="obj_pos">
        <dia:point val="33.5525,3.075"/>
      </dia:attribute>
      <dia:attribute name="obj_bb">
        <dia:rectangle val="33.5525,2.3194;33.5525,3.8306"/>
      </dia:attribute>
      <dia:attribute name="text">
        <dia:composite type="text">
          <dia:attribute name="string">
            <dia:string>##</dia:string>
          </dia:attribute>
          <dia:attribute name="font">
            <dia:font family="sans" style="0" name="Helvetica"/>
          </dia:attribute>
          <dia:attribute name="height">
            <dia:real val="1.6227777153253555"/>
          </dia:attribute>
          <dia:attribute name="pos">
            <dia:point val="33.5525,3.52443"/>
          </dia:attribute>
          <dia:attribute name="color">
            <dia:color val="#000000ff"/>
          </dia:attribute>
          <dia:attribute name="alignment">
            <dia:enum val="1"/>
          </dia:attribute>
        </dia:composite>
      </dia:attribute>
      <dia:attribute name="valign">
        <dia:enum val="2"/>
      </dia:attribute>
      <dia:connections>
        <dia:connection handle="0" to="O0" connection="18"/>
      </dia:connections>
    </dia:object>
    <dia:object type="Standard - Text" version="1" id="O20">
      <dia:attribute name="obj_pos">
        <dia:point val="36.7475,3.075"/>
      </dia:attribute>
      <dia:attribute name="obj_bb">
        <dia:rectangle val="35.9225,2.3194;37.5725,3.8306"/>
      </dia:attribute>
      <dia:attribute name="text">
        <dia:composite type="text">
          <dia:attribute name="string">
            <dia:string>#12#</dia:string>
          </dia:attribute>
          <dia:attribute name="font">
            <dia:font family="sans" style="0" name="Helvetica"/>
          </dia:attribute>
          <dia:attribute name="height">
            <dia:real val="1.6227777153253555"/>
          </dia:attribute>
          <dia:attribute name="pos">
            <dia:point val="36.7475,3.52443"/>
          </dia:attribute>
          <dia:attribute name="color">
            <dia:color val="#000000ff"/>
          </dia:attribute>
          <dia:attribute name="alignment">
            <dia:enum val="1"/>
          </dia:attribute>
        </dia:composite>
      </dia:attribute>
      <dia:attribute name="valign">
        <dia:enum val="2"/>
      </dia:attribute>
      <dia:connections>
        <dia:connection handle="0" to="O0" connection="19"/>
      </dia:connections>
    </dia:object>
    <dia:object type="Standard - Text" version="1" id="O21">
      <dia:attribute name="obj_pos">
        <dia:point val="39.9425,3.075"/>
      </dia:attribute>
      <dia:attribute name="obj_bb">
        <dia:rectangle val="39.1175,2.3194;40.7675,3.8306"/>
      </dia:attribute>
      <dia:attribute name="text">
        <dia:composite type="text">
          <dia:attribute name="string">
            <dia:string>#12#</dia:string>
          </dia:attribute>
          <dia:attribute name="font">
            <dia:font family="sans" style="0" name="Helvetica"/>
          </dia:attribute>
          <dia:attribute name="height">
            <dia:real val="1.6227777153253555"/>
          </dia:attribute>
          <dia:attribute name="pos">
            <dia:point val="39.9425,3.52443"/>
          </dia:attribute>
          <dia:attribute name="color">
            <dia:color val="#000000ff"/>
          </dia:attribute>
          <dia:attribute name="alignment">
            <dia:enum val="1"/>
          </dia:attribute>
        </dia:composite>
      </dia:attribute>
      <dia:attribute name="valign">
        <dia:enum val="2"/>
      </dia:attribute>
      <dia:connections>
        <dia:connection handle="0" to="O0" connection="20"/>
      </dia:connections>
    </dia:object>
    <dia:object type="Standard - Text" version="1" id="O22">
      <dia:attribute name="obj_pos">
        <dia:point val="43.1375,3.075"/>
      </dia:attribute>
      <dia:attribute name="obj_bb">
        <dia:rectangle val="42.3125,2.3194;43.9625,3.8306"/>
      </dia:attribute>
      <dia:attribute name="text">
        <dia:composite type="text">
          <dia:attribute name="string">
            <dia:string>#13#</dia:string>
          </dia:attribute>
          <dia:attribute name="font">
            <dia:font family="sans" style="0" name="Helvetica"/>
          </dia:attribute>
          <dia:attribute name="height">
            <dia:real val="1.6227777153253555"/>
          </dia:attribute>
          <dia:attribute name="pos">
            <dia:point val="43.1375,3.52443"/>
          </dia:attribute>
          <dia:attribute name="color">
            <dia:color val="#000000ff"/>
          </dia:attribute>
          <dia:attribute name="alignment">
            <dia:enum val="1"/>
          </dia:attribute>
        </dia:composite>
      </dia:attribute>
      <dia:attribute name="valign">
        <dia:enum val="2"/>
      </dia:attribute>
      <dia:connections>
        <dia:connection handle="0" to="O0" connection="21"/>
      </dia:connections>
    </dia:object>
    <dia:object type="Standard - Text" version="1" id="O23">
      <dia:attribute name="obj_pos">
        <dia:point val="35.15,3.075"/>
      </dia:attribute>
      <dia:attribute name="obj_bb">
        <dia:rectangle val="35.15,2.3194;35.15,3.8306"/>
      </dia:attribute>
      <dia:attribute name="text">
        <dia:composite type="text">
          <dia:attribute name="string">
            <dia:string>##</dia:string>
          </dia:attribute>
          <dia:attribute name="font">
            <dia:font family="sans" style="0" name="Helvetica"/>
          </dia:attribute>
          <dia:attribute name="height">
            <dia:real val="1.6227777153253555"/>
          </dia:attribute>
          <dia:attribute name="pos">
            <dia:point val="35.15,3.52443"/>
          </dia:attribute>
          <dia:attribute name="color">
            <dia:color val="#000000ff"/>
          </dia:attribute>
          <dia:attribute name="alignment">
            <dia:enum val="1"/>
          </dia:attribute>
        </dia:composite>
      </dia:attribute>
      <dia:attribute name="valign">
        <dia:enum val="2"/>
      </dia:attribute>
      <dia:connections>
        <dia:connection handle="0" to="O0" connection="8"/>
      </dia:connections>
    </dia:object>
    <dia:object type="Standard - Text" version="1" id="O24">
      <dia:attribute name="obj_pos">
        <dia:point val="46.3325,3.075"/>
      </dia:attribute>
      <dia:attribute name="obj_bb">
        <dia:rectangle val="45.5075,2.3194;47.1575,3.8306"/>
      </dia:attribute>
      <dia:attribute name="text">
        <dia:composite type="text">
          <dia:attribute name="string">
            <dia:string>#15#</dia:string>
          </dia:attribute>
          <dia:attribute name="font">
            <dia:font family="sans" style="0" name="Helvetica"/>
          </dia:attribute>
          <dia:attribute name="height">
            <dia:real val="1.6227777153253555"/>
          </dia:attribute>
          <dia:attribute name="pos">
            <dia:point val="46.3325,3.52443"/>
          </dia:attribute>
          <dia:attribute name="color">
            <dia:color val="#000000ff"/>
          </dia:attribute>
          <dia:attribute name="alignment">
            <dia:enum val="1"/>
          </dia:attribute>
        </dia:composite>
      </dia:attribute>
      <dia:attribute name="valign">
        <dia:enum val="2"/>
      </dia:attribute>
      <dia:connections>
        <dia:connection handle="0" to="O0" connection="22"/>
      </dia:connections>
    </dia:object>
    <dia:object type="Standard - Text" version="1" id="O25">
      <dia:attribute name="obj_pos">
        <dia:point val="49.5275,3.075"/>
      </dia:attribute>
      <dia:attribute name="obj_bb">
        <dia:rectangle val="48.7025,2.3194;50.3525,3.8306"/>
      </dia:attribute>
      <dia:attribute name="text">
        <dia:composite type="text">
          <dia:attribute name="string">
            <dia:string>#15#</dia:string>
          </dia:attribute>
          <dia:attribute name="font">
            <dia:font family="sans" style="0" name="Helvetica"/>
          </dia:attribute>
          <dia:attribute name="height">
            <dia:real val="1.6227777153253555"/>
          </dia:attribute>
          <dia:attribute name="pos">
            <dia:point val="49.5275,3.52443"/>
          </dia:attribute>
          <dia:attribute name="color">
            <dia:color val="#000000ff"/>
          </dia:attribute>
          <dia:attribute name="alignment">
            <dia:enum val="1"/>
          </dia:attribute>
        </dia:composite>
      </dia:attribute>
      <dia:attribute name="valign">
        <dia:enum val="2"/>
      </dia:attribute>
      <dia:connections>
        <dia:connection handle="0" to="O0" connection="23"/>
      </dia:connections>
    </dia:object>
    <dia:object type="Standard - Text" version="1" id="O26">
      <dia:attribute name="obj_pos">
        <dia:point val="52.7225,3.075"/>
      </dia:attribute>
      <dia:attribute name="obj_bb">
        <dia:rectangle val="51.8975,2.3194;53.5475,3.8306"/>
      </dia:attribute>
      <dia:attribute name="text">
        <dia:composite type="text">
          <dia:attribute name="string">
            <dia:string>#16#</dia:string>
          </dia:attribute>
          <dia:attribute name="font">
            <dia:font family="sans" style="0" name="Helvetica"/>
          </dia:attribute>
          <dia:attribute name="height">
            <dia:real val="1.6227777153253555"/>
          </dia:attribute>
          <dia:attribute name="pos">
            <dia:point val="52.7225,3.52443"/>
          </dia:attribute>
          <dia:attribute name="color">
            <dia:color val="#000000ff"/>
          </dia:attribute>
          <dia:attribute name="alignment">
            <dia:enum val="1"/>
          </dia:attribute>
        </dia:composite>
      </dia:attribute>
      <dia:attribute name="valign">
        <dia:enum val="2"/>
      </dia:attribute>
      <dia:connections>
        <dia:connection handle="0" to="O0" connection="24"/>
      </dia:connections>
    </dia:object>
    <dia:object type="Standard - Text" version="1" id="O27">
      <dia:attribute name="obj_pos">
        <dia:point val="55.9175,3.075"/>
      </dia:attribute>
      <dia:attribute name="obj_bb">
        <dia:rectangle val="55.0925,2.3194;56.7425,3.8306"/>
      </dia:attribute>
      <dia:attribute name="text">
        <dia:composite type="text">
          <dia:attribute name="string">
            <dia:string>#16#</dia:string>
          </dia:attribute>
          <dia:attribute name="font">
            <dia:font family="sans" style="0" name="Helvetica"/>
          </dia:attribute>
          <dia:attribute name="height">
            <dia:real val="1.6227777153253555"/>
          </dia:attribute>
          <dia:attribute name="pos">
            <dia:point val="55.9175,3.52443"/>
          </dia:attribute>
          <dia:attribute name="color">
            <dia:color val="#000000ff"/>
          </dia:attribute>
          <dia:attribute name="alignment">
            <dia:enum val="1"/>
          </dia:attribute>
        </dia:composite>
      </dia:attribute>
      <dia:attribute name="valign">
        <dia:enum val="2"/>
      </dia:attribute>
      <dia:connections>
        <dia:connection handle="0" to="O0" connection="25"/>
      </dia:connections>
    </dia:object>
    <dia:object type="Standard - Text" version="1" id="O28">
      <dia:attribute name="obj_pos">
        <dia:point val="35.15,3.075"/>
      </dia:attribute>
      <dia:attribute name="obj_bb">
        <dia:rectangle val="35.15,2.3194;35.15,3.8306"/>
      </dia:attribute>
      <dia:attribute name="text">
        <dia:composite type="text">
          <dia:attribute name="string">
            <dia:string>##</dia:string>
          </dia:attribute>
          <dia:attribute name="font">
            <dia:font family="sans" style="0" name="Helvetica"/>
          </dia:attribute>
          <dia:attribute name="height">
            <dia:real val="1.6227777153253555"/>
          </dia:attribute>
          <dia:attribute name="pos">
            <dia:point val="35.15,3.52443"/>
          </dia:attribute>
          <dia:attribute name="color">
            <dia:color val="#000000ff"/>
          </dia:attribute>
          <dia:attribute name="alignment">
            <dia:enum val="1"/>
          </dia:attribute>
        </dia:composite>
      </dia:attribute>
      <dia:attribute name="valign">
        <dia:enum val="2"/>
      </dia:attribute>
      <dia:connections>
        <dia:connection handle="0" to="O0" connection="8"/>
      </dia:connections>
    </dia:object>
    <dia:object type="Standard - Text" version="1" id="O29">
      <dia:attribute name="obj_pos">
        <dia:point val="59.1125,3.075"/>
      </dia:attribute>
      <dia:attribute name="obj_bb">
        <dia:rectangle val="58.2875,2.3194;59.9375,3.8306"/>
      </dia:attribute>
      <dia:attribute name="text">
        <dia:composite type="text">
          <dia:attribute name="string">
            <dia:string>#17#</dia:string>
          </dia:attribute>
          <dia:attribute name="font">
            <dia:font family="sans" style="0" name="Helvetica"/>
          </dia:attribute>
          <dia:attribute name="height">
            <dia:real val="1.6227777153253555"/>
          </dia:attribute>
          <dia:attribute name="pos">
            <dia:point val="59.1125,3.52443"/>
          </dia:attribute>
          <dia:attribute name="color">
            <dia:color val="#000000ff"/>
          </dia:attribute>
          <dia:attribute name="alignment">
            <dia:enum val="1"/>
          </dia:attribute>
        </dia:composite>
      </dia:attribute>
      <dia:attribute name="valign">
        <dia:enum val="2"/>
      </dia:attribute>
      <dia:connections>
        <dia:connection handle="0" to="O0" connection="26"/>
      </dia:connections>
    </dia:object>
    <dia:object type="Standard - Text" version="1" id="O30">
      <dia:attribute name="obj_pos">
        <dia:point val="62.3075,3.075"/>
      </dia:attribute>
      <dia:attribute name="obj_bb">
        <dia:rectangle val="61.4825,2.3194;63.1325,3.8306"/>
      </dia:attribute>
      <dia:attribute name="text">
        <dia:composite type="text">
          <dia:attribute name="string">
            <dia:string>#18#</dia:string>
          </dia:attribute>
          <dia:attribute name="font">
            <dia:font family="sans" style="0" name="Helvetica"/>
          </dia:attribute>
          <dia:attribute name="height">
            <dia:real val="1.6227777153253555"/>
          </dia:attribute>
          <dia:attribute name="pos">
            <dia:point val="62.3075,3.52443"/>
          </dia:attribute>
          <dia:attribute name="color">
            <dia:color val="#000000ff"/>
          </dia:attribute>
          <dia:attribute name="alignment">
            <dia:enum val="1"/>
          </dia:attribute>
        </dia:composite>
      </dia:attribute>
      <dia:attribute name="valign">
        <dia:enum val="2"/>
      </dia:attribute>
      <dia:connections>
        <dia:connection handle="0" to="O0" connection="27"/>
      </dia:connections>
    </dia:object>
    <dia:object type="Standard - Text" version="1" id="O31">
      <dia:attribute name="obj_pos">
        <dia:point val="65.5025,3.075"/>
      </dia:attribute>
      <dia:attribute name="obj_bb">
        <dia:rectangle val="64.6775,2.3194;66.3275,3.8306"/>
      </dia:attribute>
      <dia:attribute name="text">
        <dia:composite type="text">
          <dia:attribute name="string">
            <dia:string>#19#</dia:string>
          </dia:attribute>
          <dia:attribute name="font">
            <dia:font family="sans" style="0" name="Helvetica"/>
          </dia:attribute>
          <dia:attribute name="height">
            <dia:real val="1.6227777153253555"/>
          </dia:attribute>
          <dia:attribute name="pos">
            <dia:point val="65.5025,3.52443"/>
          </dia:attribute>
          <dia:attribute name="color">
            <dia:color val="#000000ff"/>
          </dia:attribute>
          <dia:attribute name="alignment">
            <dia:enum val="1"/>
          </dia:attribute>
        </dia:composite>
      </dia:attribute>
      <dia:attribute name="valign">
        <dia:enum val="2"/>
      </dia:attribute>
      <dia:connections>
        <dia:connection handle="0" to="O0" connection="28"/>
      </dia:connections>
    </dia:object>
    <dia:object type="Standard - Text" version="1" id="O32">
      <dia:attribute name="obj_pos">
        <dia:point val="5.05,3.1"/>
      </dia:attribute>
      <dia:attribute name="obj_bb">
        <dia:rectangle val="5.05,2.50594;5.05,3.25094"/>
      </dia:attribute>
      <dia:attribute name="text">
        <dia:composite type="text">
          <dia:attribute name="string">
            <dia:string>##</dia:string>
          </dia:attribute>
          <dia:attribute name="font">
            <dia:font family="sans" style="0" name="Helvetica"/>
          </dia:attribute>
          <dia:attribute name="height">
            <dia:real val="0.80000000000000004"/>
          </dia:attribute>
          <dia:attribute name="pos">
            <dia:point val="5.05,3.1"/>
          </dia:attribute>
          <dia:attribute name="color">
            <dia:color val="#000000ff"/>
          </dia:attribute>
          <dia:attribute name="alignment">
            <dia:enum val="0"/>
          </dia:attribute>
        </dia:composite>
      </dia:attribute>
      <dia:attribute name="valign">
        <dia:enum val="3"/>
      </dia:attribute>
    </dia:object>
    <dia:object type="Standard - Line" version="0" id="O33">
      <dia:attribute name="obj_pos">
        <dia:point val="24,8.35"/>
      </dia:attribute>
      <dia:attribute name="obj_bb">
        <dia:rectangle val="23.3563,4.89927;24.5797,8.40073"/>
      </dia:attribute>
      <dia:attribute name="conn_endpoints">
        <dia:point val="24,8.35"/>
        <dia:point val="23.95,4.95"/>
      </dia:attribute>
      <dia:attribute name="numcp">
        <dia:int val="1"/>
      </dia:attribute>
      <dia:attribute name="end_arrow">
        <dia:enum val="22"/>
      </dia:attribute>
      <dia:attribute name="end_arrow_length">
        <dia:real val="1"/>
      </dia:attribute>
      <dia:attribute name="end_arrow_width">
        <dia:real val="1"/>
      </dia:attribute>
    </dia:object>
    <dia:object type="Standard - Line" version="0" id="O34">
      <dia:attribute name="obj_pos">
        <dia:point val="32.35,2.9"/>
      </dia:attribute>
      <dia:attribute name="obj_bb">
        <dia:rectangle val="32.2999,2.84993;66.7501,3.00007"/>
      </dia:attribute>
      <dia:attribute name="conn_endpoints">
        <dia:point val="32.35,2.9"/>
        <dia:point val="66.7,2.95"/>
      </dia:attribute>
      <dia:attribute name="numcp">
        <dia:int val="1"/>
      </dia:attribute>
    </dia:object>
    <dia:object type="Standard - Line" version="0" id="O35">
      <dia:attribute name="obj_pos">
        <dia:point val="3.58507,2.94507"/>
      </dia:attribute>
      <dia:attribute name="obj_bb">
        <dia:rectangle val="3.53492,2.84985;18.6002,2.99522"/>
      </dia:attribute>
      <dia:attribute name="conn_endpoints">
        <dia:point val="3.58507,2.94507"/>
        <dia:point val="18.55,2.9"/>
      </dia:attribute>
      <dia:attribute name="numcp">
        <dia:int val="1"/>
      </dia:attribute>
    </dia:object>
    <dia:object type="Standard - Line" version="0" id="O36">
      <dia:attribute name="obj_pos">
        <dia:point val="22.7352,2.89022"/>
      </dia:attribute>
      <dia:attribute name="obj_bb">
        <dia:rectangle val="22.6849,2.83988;31.5503,3.00034"/>
      </dia:attribute>
      <dia:attribute name="conn_endpoints">
        <dia:point val="22.7352,2.89022"/>
        <dia:point val="31.5,2.95"/>
      </dia:attribute>
      <dia:attribute name="numcp">
        <dia:int val="1"/>
      </dia:attribute>
    </dia:object>
  </dia:layer>
</dia:diagram>
