<?xml version="1.0" encoding="UTF-8"?>
<dia:diagram xmlns:dia="http://www.lysator.liu.se/~alla/dia/">
  <dia:diagramdata>
    <dia:attribute name="background">
      <dia:color val="#ffffffff"/>
    </dia:attribute>
    <dia:attribute name="pagebreak">
      <dia:color val="#000099ff"/>
    </dia:attribute>
    <dia:attribute name="paper">
      <dia:composite type="paper">
        <dia:attribute name="name">
          <dia:string>#A4#</dia:string>
        </dia:attribute>
        <dia:attribute name="tmargin">
          <dia:real val="2.8222000598907471"/>
        </dia:attribute>
        <dia:attribute name="bmargin">
          <dia:real val="2.8222000598907471"/>
        </dia:attribute>
        <dia:attribute name="lmargin">
          <dia:real val="2.8222000598907471"/>
        </dia:attribute>
        <dia:attribute name="rmargin">
          <dia:real val="2.8222000598907471"/>
        </dia:attribute>
        <dia:attribute name="is_portrait">
          <dia:boolean val="true"/>
        </dia:attribute>
        <dia:attribute name="scaling">
          <dia:real val="1"/>
        </dia:attribute>
        <dia:attribute name="fitto">
          <dia:boolean val="false"/>
        </dia:attribute>
      </dia:composite>
    </dia:attribute>
    <dia:attribute name="grid">
      <dia:composite type="grid">
        <dia:attribute name="dynamic">
          <dia:boolean val="true"/>
        </dia:attribute>
        <dia:attribute name="width_x">
          <dia:real val="1"/>
        </dia:attribute>
        <dia:attribute name="width_y">
          <dia:real val="1"/>
        </dia:attribute>
        <dia:attribute name="visible_x">
          <dia:int val="1"/>
        </dia:attribute>
        <dia:attribute name="visible_y">
          <dia:int val="1"/>
        </dia:attribute>
        <dia:composite type="color"/>
      </dia:composite>
    </dia:attribute>
    <dia:attribute name="color">
      <dia:color val="#d8e5e5ff"/>
    </dia:attribute>
    <dia:attribute name="guides">
      <dia:composite type="guides">
        <dia:attribute name="hguides"/>
        <dia:attribute name="vguides"/>
      </dia:composite>
    </dia:attribute>
    <dia:attribute name="display">
      <dia:composite type="display">
        <dia:attribute name="antialiased">
          <dia:boolean val="false"/>
        </dia:attribute>
        <dia:attribute name="snap-to-grid">
          <dia:boolean val="false"/>
        </dia:attribute>
        <dia:attribute name="snap-to-object">
          <dia:boolean val="true"/>
        </dia:attribute>
        <dia:attribute name="show-grid">
          <dia:boolean val="true"/>
        </dia:attribute>
        <dia:attribute name="show-connection-points">
          <dia:boolean val="true"/>
        </dia:attribute>
      </dia:composite>
    </dia:attribute>
  </dia:diagramdata>
  <dia:layer name="Background" visible="true" connectable="true" active="true">
    <dia:object type="Standard - Box" version="0" id="O0">
      <dia:attribute name="obj_pos">
        <dia:point val="18.55,5.3"/>
      </dia:attribute>
      <dia:attribute name="obj_bb">
        <dia:rectangle val="18.5,5.25;49.85,21.4"/>
      </dia:attribute>
      <dia:attribute name="elem_corner">
        <dia:point val="18.55,5.3"/>
      </dia:attribute>
      <dia:attribute name="elem_width">
        <dia:real val="31.250000000000004"/>
      </dia:attribute>
      <dia:attribute name="elem_height">
        <dia:real val="16.050000000000004"/>
      </dia:attribute>
      <dia:attribute name="show_background">
        <dia:boolean val="true"/>
      </dia:attribute>
      <dia:attribute name="line_style">
        <dia:enum val="1"/>
      </dia:attribute>
    </dia:object>
    <dia:object type="Flowchart - Box" version="0" id="O1">
      <dia:attribute name="obj_pos">
        <dia:point val="20.0212,6.245"/>
      </dia:attribute>
      <dia:attribute name="obj_bb">
        <dia:rectangle val="19.9712,6.195;28.7361,10.57"/>
      </dia:attribute>
      <dia:attribute name="elem_corner">
        <dia:point val="20.0212,6.245"/>
      </dia:attribute>
      <dia:attribute name="elem_width">
        <dia:real val="8.6649351071553937"/>
      </dia:attribute>
      <dia:attribute name="elem_height">
        <dia:real val="4.2749998778104779"/>
      </dia:attribute>
      <dia:attribute name="inner_color">
        <dia:color val="#ff89b1ff"/>
      </dia:attribute>
      <dia:attribute name="show_background">
        <dia:boolean val="true"/>
      </dia:attribute>
      <dia:attribute name="padding">
        <dia:real val="0.5"/>
      </dia:attribute>
      <dia:attribute name="text">
        <dia:composite type="text">
          <dia:attribute name="string">
            <dia:string>#&lt;list&gt;
[   ,   ,   ,   ,   ]#</dia:string>
          </dia:attribute>
          <dia:attribute name="font">
            <dia:font family="sans" style="0" name="Helvetica"/>
          </dia:attribute>
          <dia:attribute name="height">
            <dia:real val="1.0583332926034927"/>
          </dia:attribute>
          <dia:attribute name="pos">
            <dia:point val="24.3537,8.11006"/>
          </dia:attribute>
          <dia:attribute name="color">
            <dia:color val="#000000ff"/>
          </dia:attribute>
          <dia:attribute name="alignment">
            <dia:enum val="1"/>
          </dia:attribute>
        </dia:composite>
      </dia:attribute>
    </dia:object>
    <dia:object type="Standard - Text" version="1" id="O2">
      <dia:attribute name="obj_pos">
        <dia:point val="22.0687,13.7325"/>
      </dia:attribute>
      <dia:attribute name="obj_bb">
        <dia:rectangle val="22.0687,13.1384;22.0687,13.8834"/>
      </dia:attribute>
      <dia:attribute name="text">
        <dia:composite type="text">
          <dia:attribute name="string">
            <dia:string>##</dia:string>
          </dia:attribute>
          <dia:attribute name="font">
            <dia:font family="sans" style="0" name="Helvetica"/>
          </dia:attribute>
          <dia:attribute name="height">
            <dia:real val="0.80000000000000004"/>
          </dia:attribute>
          <dia:attribute name="pos">
            <dia:point val="22.0687,13.7325"/>
          </dia:attribute>
          <dia:attribute name="color">
            <dia:color val="#000000ff"/>
          </dia:attribute>
          <dia:attribute name="alignment">
            <dia:enum val="0"/>
          </dia:attribute>
        </dia:composite>
      </dia:attribute>
      <dia:attribute name="valign">
        <dia:enum val="3"/>
      </dia:attribute>
    </dia:object>
    <dia:object type="Standard - Text" version="1" id="O3">
      <dia:attribute name="obj_pos">
        <dia:point val="22.0687,13.7325"/>
      </dia:attribute>
      <dia:attribute name="obj_bb">
        <dia:rectangle val="22.0687,13.1384;22.0687,13.8834"/>
      </dia:attribute>
      <dia:attribute name="text">
        <dia:composite type="text">
          <dia:attribute name="string">
            <dia:string>##</dia:string>
          </dia:attribute>
          <dia:attribute name="font">
            <dia:font family="sans" style="0" name="Helvetica"/>
          </dia:attribute>
          <dia:attribute name="height">
            <dia:real val="0.80000000000000004"/>
          </dia:attribute>
          <dia:attribute name="pos">
            <dia:point val="22.0687,13.7325"/>
          </dia:attribute>
          <dia:attribute name="color">
            <dia:color val="#000000ff"/>
          </dia:attribute>
          <dia:attribute name="alignment">
            <dia:enum val="0"/>
          </dia:attribute>
        </dia:composite>
      </dia:attribute>
      <dia:attribute name="valign">
        <dia:enum val="3"/>
      </dia:attribute>
    </dia:object>
    <dia:object type="Standard - Text" version="1" id="O4">
      <dia:attribute name="obj_pos">
        <dia:point val="22.0687,13.7325"/>
      </dia:attribute>
      <dia:attribute name="obj_bb">
        <dia:rectangle val="22.0687,13.1384;22.0687,13.8834"/>
      </dia:attribute>
      <dia:attribute name="text">
        <dia:composite type="text">
          <dia:attribute name="string">
            <dia:string>##</dia:string>
          </dia:attribute>
          <dia:attribute name="font">
            <dia:font family="sans" style="0" name="Helvetica"/>
          </dia:attribute>
          <dia:attribute name="height">
            <dia:real val="0.80000000000000004"/>
          </dia:attribute>
          <dia:attribute name="pos">
            <dia:point val="22.0687,13.7325"/>
          </dia:attribute>
          <dia:attribute name="color">
            <dia:color val="#000000ff"/>
          </dia:attribute>
          <dia:attribute name="alignment">
            <dia:enum val="0"/>
          </dia:attribute>
        </dia:composite>
      </dia:attribute>
      <dia:attribute name="valign">
        <dia:enum val="3"/>
      </dia:attribute>
    </dia:object>
    <dia:object type="Standard - Text" version="1" id="O5">
      <dia:attribute name="obj_pos">
        <dia:point val="22.0687,13.7325"/>
      </dia:attribute>
      <dia:attribute name="obj_bb">
        <dia:rectangle val="22.0687,13.1384;22.0687,13.8834"/>
      </dia:attribute>
      <dia:attribute name="text">
        <dia:composite type="text">
          <dia:attribute name="string">
            <dia:string>##</dia:string>
          </dia:attribute>
          <dia:attribute name="font">
            <dia:font family="sans" style="0" name="Helvetica"/>
          </dia:attribute>
          <dia:attribute name="height">
            <dia:real val="0.80000000000000004"/>
          </dia:attribute>
          <dia:attribute name="pos">
            <dia:point val="22.0687,13.7325"/>
          </dia:attribute>
          <dia:attribute name="color">
            <dia:color val="#000000ff"/>
          </dia:attribute>
          <dia:attribute name="alignment">
            <dia:enum val="0"/>
          </dia:attribute>
        </dia:composite>
      </dia:attribute>
      <dia:attribute name="valign">
        <dia:enum val="3"/>
      </dia:attribute>
    </dia:object>
    <dia:object type="Standard - Text" version="1" id="O6">
      <dia:attribute name="obj_pos">
        <dia:point val="32.585,13.6325"/>
      </dia:attribute>
      <dia:attribute name="obj_bb">
        <dia:rectangle val="32.585,13.0384;32.585,13.7834"/>
      </dia:attribute>
      <dia:attribute name="text">
        <dia:composite type="text">
          <dia:attribute name="string">
            <dia:string>##</dia:string>
          </dia:attribute>
          <dia:attribute name="font">
            <dia:font family="sans" style="0" name="Helvetica"/>
          </dia:attribute>
          <dia:attribute name="height">
            <dia:real val="0.80000000000000004"/>
          </dia:attribute>
          <dia:attribute name="pos">
            <dia:point val="32.585,13.6325"/>
          </dia:attribute>
          <dia:attribute name="color">
            <dia:color val="#000000ff"/>
          </dia:attribute>
          <dia:attribute name="alignment">
            <dia:enum val="0"/>
          </dia:attribute>
        </dia:composite>
      </dia:attribute>
      <dia:attribute name="valign">
        <dia:enum val="3"/>
      </dia:attribute>
    </dia:object>
    <dia:object type="Flowchart - Ellipse" version="0" id="O7">
      <dia:attribute name="obj_pos">
        <dia:point val="8.3057,9.68269"/>
      </dia:attribute>
      <dia:attribute name="obj_bb">
        <dia:rectangle val="8.2557,9.63269;17.9824,12.7104"/>
      </dia:attribute>
      <dia:attribute name="elem_corner">
        <dia:point val="8.3057,9.68269"/>
      </dia:attribute>
      <dia:attribute name="elem_width">
        <dia:real val="9.6267300685065624"/>
      </dia:attribute>
      <dia:attribute name="elem_height">
        <dia:real val="2.9777230229770129"/>
      </dia:attribute>
      <dia:attribute name="inner_color">
        <dia:color val="#9cfff8ff"/>
      </dia:attribute>
      <dia:attribute name="show_background">
        <dia:boolean val="true"/>
      </dia:attribute>
      <dia:attribute name="padding">
        <dia:real val="0.35355339059327379"/>
      </dia:attribute>
      <dia:attribute name="text">
        <dia:composite type="text">
          <dia:attribute name="string">
            <dia:string>#permutation_list#</dia:string>
          </dia:attribute>
          <dia:attribute name="font">
            <dia:font family="sans" style="0" name="Helvetica"/>
          </dia:attribute>
          <dia:attribute name="height">
            <dia:real val="1.0583332926034927"/>
          </dia:attribute>
          <dia:attribute name="pos">
            <dia:point val="13.1191,11.4283"/>
          </dia:attribute>
          <dia:attribute name="color">
            <dia:color val="#000000ff"/>
          </dia:attribute>
          <dia:attribute name="alignment">
            <dia:enum val="1"/>
          </dia:attribute>
        </dia:composite>
      </dia:attribute>
    </dia:object>
    <dia:object type="Standard - Line" version="0" id="O8">
      <dia:attribute name="obj_pos">
        <dia:point val="16.0882,9.97177"/>
      </dia:attribute>
      <dia:attribute name="obj_bb">
        <dia:rectangle val="16.0231,8.31483;20.0863,10.0369"/>
      </dia:attribute>
      <dia:attribute name="conn_endpoints">
        <dia:point val="16.0882,9.97177"/>
        <dia:point val="20.0212,8.3825"/>
      </dia:attribute>
      <dia:attribute name="numcp">
        <dia:int val="1"/>
      </dia:attribute>
      <dia:attribute name="end_arrow">
        <dia:enum val="1"/>
      </dia:attribute>
      <dia:attribute name="end_arrow_length">
        <dia:real val="0.5"/>
      </dia:attribute>
      <dia:attribute name="end_arrow_width">
        <dia:real val="0.5"/>
      </dia:attribute>
      <dia:connections>
        <dia:connection handle="0" to="O7" connection="16"/>
        <dia:connection handle="1" to="O1" connection="7"/>
      </dia:connections>
    </dia:object>
    <dia:object type="Standard - Text" version="1" id="O9">
      <dia:attribute name="obj_pos">
        <dia:point val="20.7849,8.545"/>
      </dia:attribute>
      <dia:attribute name="obj_bb">
        <dia:rectangle val="20.7849,7.95094;20.7849,8.69594"/>
      </dia:attribute>
      <dia:attribute name="text">
        <dia:composite type="text">
          <dia:attribute name="string">
            <dia:string>##</dia:string>
          </dia:attribute>
          <dia:attribute name="font">
            <dia:font family="sans" style="0" name="Helvetica"/>
          </dia:attribute>
          <dia:attribute name="height">
            <dia:real val="0.80000000000000004"/>
          </dia:attribute>
          <dia:attribute name="pos">
            <dia:point val="20.7849,8.545"/>
          </dia:attribute>
          <dia:attribute name="color">
            <dia:color val="#000000ff"/>
          </dia:attribute>
          <dia:attribute name="alignment">
            <dia:enum val="0"/>
          </dia:attribute>
        </dia:composite>
      </dia:attribute>
      <dia:attribute name="valign">
        <dia:enum val="3"/>
      </dia:attribute>
    </dia:object>
    <dia:object type="Standard - Text" version="1" id="O10">
      <dia:attribute name="obj_pos">
        <dia:point val="35.5849,12.995"/>
      </dia:attribute>
      <dia:attribute name="obj_bb">
        <dia:rectangle val="35.5849,12.4009;35.5849,13.1459"/>
      </dia:attribute>
      <dia:attribute name="text">
        <dia:composite type="text">
          <dia:attribute name="string">
            <dia:string>##</dia:string>
          </dia:attribute>
          <dia:attribute name="font">
            <dia:font family="sans" style="0" name="Helvetica"/>
          </dia:attribute>
          <dia:attribute name="height">
            <dia:real val="0.80000000000000004"/>
          </dia:attribute>
          <dia:attribute name="pos">
            <dia:point val="35.5849,12.995"/>
          </dia:attribute>
          <dia:attribute name="color">
            <dia:color val="#000000ff"/>
          </dia:attribute>
          <dia:attribute name="alignment">
            <dia:enum val="0"/>
          </dia:attribute>
        </dia:composite>
      </dia:attribute>
      <dia:attribute name="valign">
        <dia:enum val="3"/>
      </dia:attribute>
      <dia:connections>
        <dia:connection handle="0" to="O25" connection="16"/>
      </dia:connections>
    </dia:object>
    <dia:object type="Standard - Text" version="1" id="O11">
      <dia:attribute name="obj_pos">
        <dia:point val="32.585,13.6325"/>
      </dia:attribute>
      <dia:attribute name="obj_bb">
        <dia:rectangle val="32.585,13.0384;32.585,13.7834"/>
      </dia:attribute>
      <dia:attribute name="text">
        <dia:composite type="text">
          <dia:attribute name="string">
            <dia:string>##</dia:string>
          </dia:attribute>
          <dia:attribute name="font">
            <dia:font family="sans" style="0" name="Helvetica"/>
          </dia:attribute>
          <dia:attribute name="height">
            <dia:real val="0.80000000000000004"/>
          </dia:attribute>
          <dia:attribute name="pos">
            <dia:point val="32.585,13.6325"/>
          </dia:attribute>
          <dia:attribute name="color">
            <dia:color val="#000000ff"/>
          </dia:attribute>
          <dia:attribute name="alignment">
            <dia:enum val="0"/>
          </dia:attribute>
        </dia:composite>
      </dia:attribute>
      <dia:attribute name="valign">
        <dia:enum val="3"/>
      </dia:attribute>
    </dia:object>
    <dia:object type="Standard - Text" version="1" id="O12">
      <dia:attribute name="obj_pos">
        <dia:point val="35.9687,13.0417"/>
      </dia:attribute>
      <dia:attribute name="obj_bb">
        <dia:rectangle val="35.9687,12.4476;35.9687,13.1926"/>
      </dia:attribute>
      <dia:attribute name="text">
        <dia:composite type="text">
          <dia:attribute name="string">
            <dia:string>##</dia:string>
          </dia:attribute>
          <dia:attribute name="font">
            <dia:font family="sans" style="0" name="Helvetica"/>
          </dia:attribute>
          <dia:attribute name="height">
            <dia:real val="0.80000000000000004"/>
          </dia:attribute>
          <dia:attribute name="pos">
            <dia:point val="35.9687,13.0417"/>
          </dia:attribute>
          <dia:attribute name="color">
            <dia:color val="#000000ff"/>
          </dia:attribute>
          <dia:attribute name="alignment">
            <dia:enum val="0"/>
          </dia:attribute>
        </dia:composite>
      </dia:attribute>
      <dia:attribute name="valign">
        <dia:enum val="3"/>
      </dia:attribute>
    </dia:object>
    <dia:object type="Standard - Text" version="1" id="O13">
      <dia:attribute name="obj_pos">
        <dia:point val="32.585,13.6325"/>
      </dia:attribute>
      <dia:attribute name="obj_bb">
        <dia:rectangle val="32.585,13.0384;32.585,13.7834"/>
      </dia:attribute>
      <dia:attribute name="text">
        <dia:composite type="text">
          <dia:attribute name="string">
            <dia:string>##</dia:string>
          </dia:attribute>
          <dia:attribute name="font">
            <dia:font family="sans" style="0" name="Helvetica"/>
          </dia:attribute>
          <dia:attribute name="height">
            <dia:real val="0.80000000000000004"/>
          </dia:attribute>
          <dia:attribute name="pos">
            <dia:point val="32.585,13.6325"/>
          </dia:attribute>
          <dia:attribute name="color">
            <dia:color val="#000000ff"/>
          </dia:attribute>
          <dia:attribute name="alignment">
            <dia:enum val="0"/>
          </dia:attribute>
        </dia:composite>
      </dia:attribute>
      <dia:attribute name="valign">
        <dia:enum val="3"/>
      </dia:attribute>
    </dia:object>
    <dia:object type="Flowchart - Box" version="0" id="O14">
      <dia:attribute name="obj_pos">
        <dia:point val="19.9037,11.6367"/>
      </dia:attribute>
      <dia:attribute name="obj_bb">
        <dia:rectangle val="19.8537,11.5867;23.7162,14.9034"/>
      </dia:attribute>
      <dia:attribute name="elem_corner">
        <dia:point val="19.9037,11.6367"/>
      </dia:attribute>
      <dia:attribute name="elem_width">
        <dia:real val="3.7625000000000002"/>
      </dia:attribute>
      <dia:attribute name="elem_height">
        <dia:real val="3.2166665852069856"/>
      </dia:attribute>
      <dia:attribute name="inner_color">
        <dia:color val="#ff89b1ff"/>
      </dia:attribute>
      <dia:attribute name="show_background">
        <dia:boolean val="true"/>
      </dia:attribute>
      <dia:attribute name="padding">
        <dia:real val="0.5"/>
      </dia:attribute>
      <dia:attribute name="text">
        <dia:composite type="text">
          <dia:attribute name="string">
            <dia:string>#&lt;list&gt;
[ ]#</dia:string>
          </dia:attribute>
          <dia:attribute name="font">
            <dia:font family="sans" style="0" name="Helvetica"/>
          </dia:attribute>
          <dia:attribute name="height">
            <dia:real val="1.0583332926034927"/>
          </dia:attribute>
          <dia:attribute name="pos">
            <dia:point val="21.785,12.9726"/>
          </dia:attribute>
          <dia:attribute name="color">
            <dia:color val="#000000ff"/>
          </dia:attribute>
          <dia:attribute name="alignment">
            <dia:enum val="1"/>
          </dia:attribute>
        </dia:composite>
      </dia:attribute>
    </dia:object>
    <dia:object type="Standard - Text" version="1" id="O15">
      <dia:attribute name="obj_pos">
        <dia:point val="21.7849,13.245"/>
      </dia:attribute>
      <dia:attribute name="obj_bb">
        <dia:rectangle val="21.7849,12.6509;21.7849,13.3959"/>
      </dia:attribute>
      <dia:attribute name="text">
        <dia:composite type="text">
          <dia:attribute name="string">
            <dia:string>##</dia:string>
          </dia:attribute>
          <dia:attribute name="font">
            <dia:font family="sans" style="0" name="Helvetica"/>
          </dia:attribute>
          <dia:attribute name="height">
            <dia:real val="0.80000000000000004"/>
          </dia:attribute>
          <dia:attribute name="pos">
            <dia:point val="21.7849,13.245"/>
          </dia:attribute>
          <dia:attribute name="color">
            <dia:color val="#000000ff"/>
          </dia:attribute>
          <dia:attribute name="alignment">
            <dia:enum val="0"/>
          </dia:attribute>
        </dia:composite>
      </dia:attribute>
      <dia:attribute name="valign">
        <dia:enum val="3"/>
      </dia:attribute>
      <dia:connections>
        <dia:connection handle="0" to="O14" connection="16"/>
      </dia:connections>
    </dia:object>
    <dia:object type="Flowchart - Box" version="0" id="O16">
      <dia:attribute name="obj_pos">
        <dia:point val="24.3537,11.5367"/>
      </dia:attribute>
      <dia:attribute name="obj_bb">
        <dia:rectangle val="24.3037,11.4867;28.1662,14.8034"/>
      </dia:attribute>
      <dia:attribute name="elem_corner">
        <dia:point val="24.3537,11.5367"/>
      </dia:attribute>
      <dia:attribute name="elem_width">
        <dia:real val="3.7625000000000002"/>
      </dia:attribute>
      <dia:attribute name="elem_height">
        <dia:real val="3.2166665852069856"/>
      </dia:attribute>
      <dia:attribute name="inner_color">
        <dia:color val="#ff89b1ff"/>
      </dia:attribute>
      <dia:attribute name="show_background">
        <dia:boolean val="true"/>
      </dia:attribute>
      <dia:attribute name="padding">
        <dia:real val="0.5"/>
      </dia:attribute>
      <dia:attribute name="text">
        <dia:composite type="text">
          <dia:attribute name="string">
            <dia:string>#&lt;list&gt;
[   ]#</dia:string>
          </dia:attribute>
          <dia:attribute name="font">
            <dia:font family="sans" style="0" name="Helvetica"/>
          </dia:attribute>
          <dia:attribute name="height">
            <dia:real val="1.0583332926034927"/>
          </dia:attribute>
          <dia:attribute name="pos">
            <dia:point val="26.235,12.8726"/>
          </dia:attribute>
          <dia:attribute name="color">
            <dia:color val="#000000ff"/>
          </dia:attribute>
          <dia:attribute name="alignment">
            <dia:enum val="1"/>
          </dia:attribute>
        </dia:composite>
      </dia:attribute>
    </dia:object>
    <dia:object type="Standard - Text" version="1" id="O17">
      <dia:attribute name="obj_pos">
        <dia:point val="13.1191,11.1715"/>
      </dia:attribute>
      <dia:attribute name="obj_bb">
        <dia:rectangle val="13.1191,10.5774;13.1191,11.3224"/>
      </dia:attribute>
      <dia:attribute name="text">
        <dia:composite type="text">
          <dia:attribute name="string">
            <dia:string>##</dia:string>
          </dia:attribute>
          <dia:attribute name="font">
            <dia:font family="sans" style="0" name="Helvetica"/>
          </dia:attribute>
          <dia:attribute name="height">
            <dia:real val="0.80000000000000004"/>
          </dia:attribute>
          <dia:attribute name="pos">
            <dia:point val="13.1191,11.1715"/>
          </dia:attribute>
          <dia:attribute name="color">
            <dia:color val="#000000ff"/>
          </dia:attribute>
          <dia:attribute name="alignment">
            <dia:enum val="0"/>
          </dia:attribute>
        </dia:composite>
      </dia:attribute>
      <dia:attribute name="valign">
        <dia:enum val="3"/>
      </dia:attribute>
      <dia:connections>
        <dia:connection handle="0" to="O7" connection="16"/>
      </dia:connections>
    </dia:object>
    <dia:object type="Standard - Text" version="1" id="O18">
      <dia:attribute name="obj_pos">
        <dia:point val="26.2349,13.145"/>
      </dia:attribute>
      <dia:attribute name="obj_bb">
        <dia:rectangle val="26.2349,12.5509;26.2349,13.2959"/>
      </dia:attribute>
      <dia:attribute name="text">
        <dia:composite type="text">
          <dia:attribute name="string">
            <dia:string>##</dia:string>
          </dia:attribute>
          <dia:attribute name="font">
            <dia:font family="sans" style="0" name="Helvetica"/>
          </dia:attribute>
          <dia:attribute name="height">
            <dia:real val="0.80000000000000004"/>
          </dia:attribute>
          <dia:attribute name="pos">
            <dia:point val="26.2349,13.145"/>
          </dia:attribute>
          <dia:attribute name="color">
            <dia:color val="#000000ff"/>
          </dia:attribute>
          <dia:attribute name="alignment">
            <dia:enum val="0"/>
          </dia:attribute>
        </dia:composite>
      </dia:attribute>
      <dia:attribute name="valign">
        <dia:enum val="3"/>
      </dia:attribute>
      <dia:connections>
        <dia:connection handle="0" to="O16" connection="16"/>
      </dia:connections>
    </dia:object>
    <dia:object type="Flowchart - Box" version="0" id="O19">
      <dia:attribute name="obj_pos">
        <dia:point val="28.8037,11.4367"/>
      </dia:attribute>
      <dia:attribute name="obj_bb">
        <dia:rectangle val="28.7537,11.3867;32.6162,14.7034"/>
      </dia:attribute>
      <dia:attribute name="elem_corner">
        <dia:point val="28.8037,11.4367"/>
      </dia:attribute>
      <dia:attribute name="elem_width">
        <dia:real val="3.7625000000000002"/>
      </dia:attribute>
      <dia:attribute name="elem_height">
        <dia:real val="3.2166665852069856"/>
      </dia:attribute>
      <dia:attribute name="inner_color">
        <dia:color val="#ff89b1ff"/>
      </dia:attribute>
      <dia:attribute name="show_background">
        <dia:boolean val="true"/>
      </dia:attribute>
      <dia:attribute name="padding">
        <dia:real val="0.5"/>
      </dia:attribute>
      <dia:attribute name="text">
        <dia:composite type="text">
          <dia:attribute name="string">
            <dia:string>#&lt;list&gt;
[   ]#</dia:string>
          </dia:attribute>
          <dia:attribute name="font">
            <dia:font family="sans" style="0" name="Helvetica"/>
          </dia:attribute>
          <dia:attribute name="height">
            <dia:real val="1.0583332926034927"/>
          </dia:attribute>
          <dia:attribute name="pos">
            <dia:point val="30.685,12.7726"/>
          </dia:attribute>
          <dia:attribute name="color">
            <dia:color val="#000000ff"/>
          </dia:attribute>
          <dia:attribute name="alignment">
            <dia:enum val="1"/>
          </dia:attribute>
        </dia:composite>
      </dia:attribute>
    </dia:object>
    <dia:object type="Standard - Text" version="1" id="O20">
      <dia:attribute name="obj_pos">
        <dia:point val="30.6849,13.045"/>
      </dia:attribute>
      <dia:attribute name="obj_bb">
        <dia:rectangle val="30.6849,12.4509;30.6849,13.1959"/>
      </dia:attribute>
      <dia:attribute name="text">
        <dia:composite type="text">
          <dia:attribute name="string">
            <dia:string>##</dia:string>
          </dia:attribute>
          <dia:attribute name="font">
            <dia:font family="sans" style="0" name="Helvetica"/>
          </dia:attribute>
          <dia:attribute name="height">
            <dia:real val="0.80000000000000004"/>
          </dia:attribute>
          <dia:attribute name="pos">
            <dia:point val="30.6849,13.045"/>
          </dia:attribute>
          <dia:attribute name="color">
            <dia:color val="#000000ff"/>
          </dia:attribute>
          <dia:attribute name="alignment">
            <dia:enum val="0"/>
          </dia:attribute>
        </dia:composite>
      </dia:attribute>
      <dia:attribute name="valign">
        <dia:enum val="3"/>
      </dia:attribute>
      <dia:connections>
        <dia:connection handle="0" to="O19" connection="16"/>
      </dia:connections>
    </dia:object>
    <dia:object type="Standard - Line" version="0" id="O21">
      <dia:attribute name="obj_pos">
        <dia:point val="22.0687,8.8417"/>
      </dia:attribute>
      <dia:attribute name="obj_bb">
        <dia:rectangle val="20.9009,8.77734;22.1331,11.8011"/>
      </dia:attribute>
      <dia:attribute name="conn_endpoints">
        <dia:point val="22.0687,8.8417"/>
        <dia:point val="20.9849,11.7367"/>
      </dia:attribute>
      <dia:attribute name="numcp">
        <dia:int val="1"/>
      </dia:attribute>
      <dia:attribute name="end_arrow">
        <dia:enum val="1"/>
      </dia:attribute>
      <dia:attribute name="end_arrow_length">
        <dia:real val="0.5"/>
      </dia:attribute>
      <dia:attribute name="end_arrow_width">
        <dia:real val="0.5"/>
      </dia:attribute>
    </dia:object>
    <dia:object type="Standard - Line" version="0" id="O22">
      <dia:attribute name="obj_pos">
        <dia:point val="23.158,8.78845"/>
      </dia:attribute>
      <dia:attribute name="obj_bb">
        <dia:rectangle val="23.0878,8.71829;25.3645,11.6069"/>
      </dia:attribute>
      <dia:attribute name="conn_endpoints">
        <dia:point val="23.158,8.78845"/>
        <dia:point val="25.2943,11.5367"/>
      </dia:attribute>
      <dia:attribute name="numcp">
        <dia:int val="1"/>
      </dia:attribute>
      <dia:attribute name="end_arrow">
        <dia:enum val="1"/>
      </dia:attribute>
      <dia:attribute name="end_arrow_length">
        <dia:real val="0.5"/>
      </dia:attribute>
      <dia:attribute name="end_arrow_width">
        <dia:real val="0.5"/>
      </dia:attribute>
      <dia:connections>
        <dia:connection handle="1" to="O16" connection="1"/>
      </dia:connections>
    </dia:object>
    <dia:object type="Standard - Line" version="0" id="O23">
      <dia:attribute name="obj_pos">
        <dia:point val="24.258,8.88845"/>
      </dia:attribute>
      <dia:attribute name="obj_bb">
        <dia:rectangle val="24.1931,8.82354;30.7498,11.5085"/>
      </dia:attribute>
      <dia:attribute name="conn_endpoints">
        <dia:point val="24.258,8.88845"/>
        <dia:point val="30.6849,11.4367"/>
      </dia:attribute>
      <dia:attribute name="numcp">
        <dia:int val="1"/>
      </dia:attribute>
      <dia:attribute name="end_arrow">
        <dia:enum val="1"/>
      </dia:attribute>
      <dia:attribute name="end_arrow_length">
        <dia:real val="0.5"/>
      </dia:attribute>
      <dia:attribute name="end_arrow_width">
        <dia:real val="0.5"/>
      </dia:attribute>
      <dia:connections>
        <dia:connection handle="1" to="O19" connection="2"/>
      </dia:connections>
    </dia:object>
    <dia:object type="Standard - Text" version="1" id="O24">
      <dia:attribute name="obj_pos">
        <dia:point val="26.3101,18.2138"/>
      </dia:attribute>
      <dia:attribute name="obj_bb">
        <dia:rectangle val="26.3101,17.6197;26.3101,18.3647"/>
      </dia:attribute>
      <dia:attribute name="text">
        <dia:composite type="text">
          <dia:attribute name="string">
            <dia:string>##</dia:string>
          </dia:attribute>
          <dia:attribute name="font">
            <dia:font family="sans" style="0" name="Helvetica"/>
          </dia:attribute>
          <dia:attribute name="height">
            <dia:real val="0.80000000000000004"/>
          </dia:attribute>
          <dia:attribute name="pos">
            <dia:point val="26.3101,18.2138"/>
          </dia:attribute>
          <dia:attribute name="color">
            <dia:color val="#000000ff"/>
          </dia:attribute>
          <dia:attribute name="alignment">
            <dia:enum val="0"/>
          </dia:attribute>
        </dia:composite>
      </dia:attribute>
      <dia:attribute name="valign">
        <dia:enum val="3"/>
      </dia:attribute>
    </dia:object>
    <dia:object type="Flowchart - Box" version="0" id="O25">
      <dia:attribute name="obj_pos">
        <dia:point val="33.2137,11.3867"/>
      </dia:attribute>
      <dia:attribute name="obj_bb">
        <dia:rectangle val="33.1637,11.3367;38.0062,14.6534"/>
      </dia:attribute>
      <dia:attribute name="elem_corner">
        <dia:point val="33.2137,11.3867"/>
      </dia:attribute>
      <dia:attribute name="elem_width">
        <dia:real val="4.7424999999999997"/>
      </dia:attribute>
      <dia:attribute name="elem_height">
        <dia:real val="3.2166665852069856"/>
      </dia:attribute>
      <dia:attribute name="inner_color">
        <dia:color val="#ff89b1ff"/>
      </dia:attribute>
      <dia:attribute name="show_background">
        <dia:boolean val="true"/>
      </dia:attribute>
      <dia:attribute name="padding">
        <dia:real val="0.5"/>
      </dia:attribute>
      <dia:attribute name="text">
        <dia:composite type="text">
          <dia:attribute name="string">
            <dia:string>#&lt;list&gt;
[   ,   ]#</dia:string>
          </dia:attribute>
          <dia:attribute name="font">
            <dia:font family="sans" style="0" name="Helvetica"/>
          </dia:attribute>
          <dia:attribute name="height">
            <dia:real val="1.0583332926034927"/>
          </dia:attribute>
          <dia:attribute name="pos">
            <dia:point val="35.585,12.7226"/>
          </dia:attribute>
          <dia:attribute name="color">
            <dia:color val="#000000ff"/>
          </dia:attribute>
          <dia:attribute name="alignment">
            <dia:enum val="1"/>
          </dia:attribute>
        </dia:composite>
      </dia:attribute>
    </dia:object>
    <dia:object type="Standard - Text" version="1" id="O26">
      <dia:attribute name="obj_pos">
        <dia:point val="35.5849,12.995"/>
      </dia:attribute>
      <dia:attribute name="obj_bb">
        <dia:rectangle val="35.5849,12.4009;35.5849,13.1459"/>
      </dia:attribute>
      <dia:attribute name="text">
        <dia:composite type="text">
          <dia:attribute name="string">
            <dia:string>##</dia:string>
          </dia:attribute>
          <dia:attribute name="font">
            <dia:font family="sans" style="0" name="Helvetica"/>
          </dia:attribute>
          <dia:attribute name="height">
            <dia:real val="0.80000000000000004"/>
          </dia:attribute>
          <dia:attribute name="pos">
            <dia:point val="35.5849,12.995"/>
          </dia:attribute>
          <dia:attribute name="color">
            <dia:color val="#000000ff"/>
          </dia:attribute>
          <dia:attribute name="alignment">
            <dia:enum val="0"/>
          </dia:attribute>
        </dia:composite>
      </dia:attribute>
      <dia:attribute name="valign">
        <dia:enum val="3"/>
      </dia:attribute>
      <dia:connections>
        <dia:connection handle="0" to="O25" connection="16"/>
      </dia:connections>
    </dia:object>
    <dia:object type="Standard - Line" version="0" id="O27">
      <dia:attribute name="obj_pos">
        <dia:point val="29.4187,8.6917"/>
      </dia:attribute>
      <dia:attribute name="obj_bb">
        <dia:rectangle val="29.3623,8.63526;43.4926,10.8862"/>
      </dia:attribute>
      <dia:attribute name="conn_endpoints">
        <dia:point val="29.4187,8.6917"/>
        <dia:point val="43.4362,10.65"/>
      </dia:attribute>
      <dia:attribute name="numcp">
        <dia:int val="1"/>
      </dia:attribute>
      <dia:attribute name="line_style">
        <dia:enum val="4"/>
      </dia:attribute>
      <dia:attribute name="end_arrow">
        <dia:enum val="1"/>
      </dia:attribute>
      <dia:attribute name="end_arrow_length">
        <dia:real val="0.5"/>
      </dia:attribute>
      <dia:attribute name="end_arrow_width">
        <dia:real val="0.5"/>
      </dia:attribute>
    </dia:object>
    <dia:object type="Standard - Text" version="1" id="O28">
      <dia:attribute name="obj_pos">
        <dia:point val="35.5849,12.995"/>
      </dia:attribute>
      <dia:attribute name="obj_bb">
        <dia:rectangle val="35.5849,12.4009;35.5849,13.1459"/>
      </dia:attribute>
      <dia:attribute name="text">
        <dia:composite type="text">
          <dia:attribute name="string">
            <dia:string>##</dia:string>
          </dia:attribute>
          <dia:attribute name="font">
            <dia:font family="sans" style="0" name="Helvetica"/>
          </dia:attribute>
          <dia:attribute name="height">
            <dia:real val="0.80000000000000004"/>
          </dia:attribute>
          <dia:attribute name="pos">
            <dia:point val="35.5849,12.995"/>
          </dia:attribute>
          <dia:attribute name="color">
            <dia:color val="#000000ff"/>
          </dia:attribute>
          <dia:attribute name="alignment">
            <dia:enum val="0"/>
          </dia:attribute>
        </dia:composite>
      </dia:attribute>
      <dia:attribute name="valign">
        <dia:enum val="3"/>
      </dia:attribute>
      <dia:connections>
        <dia:connection handle="0" to="O25" connection="16"/>
      </dia:connections>
    </dia:object>
    <dia:object type="Flowchart - Box" version="0" id="O29">
      <dia:attribute name="obj_pos">
        <dia:point val="38.6862,11.3"/>
      </dia:attribute>
      <dia:attribute name="obj_bb">
        <dia:rectangle val="38.6362,11.25;43.2962,14.6034"/>
      </dia:attribute>
      <dia:attribute name="elem_corner">
        <dia:point val="38.6862,11.3"/>
      </dia:attribute>
      <dia:attribute name="elem_width">
        <dia:real val="4.5600141650949482"/>
      </dia:attribute>
      <dia:attribute name="elem_height">
        <dia:real val="3.2533665852070608"/>
      </dia:attribute>
      <dia:attribute name="inner_color">
        <dia:color val="#ff89b1ff"/>
      </dia:attribute>
      <dia:attribute name="show_background">
        <dia:boolean val="true"/>
      </dia:attribute>
      <dia:attribute name="padding">
        <dia:real val="0.5"/>
      </dia:attribute>
      <dia:attribute name="text">
        <dia:composite type="text">
          <dia:attribute name="string">
            <dia:string>#&lt;list&gt;
[   ,   ]#</dia:string>
          </dia:attribute>
          <dia:attribute name="font">
            <dia:font family="sans" style="0" name="Helvetica"/>
          </dia:attribute>
          <dia:attribute name="height">
            <dia:real val="1.0583332926034927"/>
          </dia:attribute>
          <dia:attribute name="pos">
            <dia:point val="40.9662,12.6542"/>
          </dia:attribute>
          <dia:attribute name="color">
            <dia:color val="#000000ff"/>
          </dia:attribute>
          <dia:attribute name="alignment">
            <dia:enum val="1"/>
          </dia:attribute>
        </dia:composite>
      </dia:attribute>
    </dia:object>
    <dia:object type="Standard - Text" version="1" id="O30">
      <dia:attribute name="obj_pos">
        <dia:point val="40.9662,12.9267"/>
      </dia:attribute>
      <dia:attribute name="obj_bb">
        <dia:rectangle val="40.9662,12.3326;40.9662,13.0776"/>
      </dia:attribute>
      <dia:attribute name="text">
        <dia:composite type="text">
          <dia:attribute name="string">
            <dia:string>##</dia:string>
          </dia:attribute>
          <dia:attribute name="font">
            <dia:font family="sans" style="0" name="Helvetica"/>
          </dia:attribute>
          <dia:attribute name="height">
            <dia:real val="0.80000000000000004"/>
          </dia:attribute>
          <dia:attribute name="pos">
            <dia:point val="40.9662,12.9267"/>
          </dia:attribute>
          <dia:attribute name="color">
            <dia:color val="#000000ff"/>
          </dia:attribute>
          <dia:attribute name="alignment">
            <dia:enum val="0"/>
          </dia:attribute>
        </dia:composite>
      </dia:attribute>
      <dia:attribute name="valign">
        <dia:enum val="3"/>
      </dia:attribute>
      <dia:connections>
        <dia:connection handle="0" to="O29" connection="16"/>
      </dia:connections>
    </dia:object>
    <dia:object type="Standard - Line" version="0" id="O31">
      <dia:attribute name="obj_pos">
        <dia:point val="25.2376,8.86141"/>
      </dia:attribute>
      <dia:attribute name="obj_bb">
        <dia:rectangle val="25.1772,8.80098;35.6453,11.5513"/>
      </dia:attribute>
      <dia:attribute name="conn_endpoints">
        <dia:point val="25.2376,8.86141"/>
        <dia:point val="35.5849,11.3867"/>
      </dia:attribute>
      <dia:attribute name="numcp">
        <dia:int val="1"/>
      </dia:attribute>
      <dia:attribute name="end_arrow">
        <dia:enum val="1"/>
      </dia:attribute>
      <dia:attribute name="end_arrow_length">
        <dia:real val="0.5"/>
      </dia:attribute>
      <dia:attribute name="end_arrow_width">
        <dia:real val="0.5"/>
      </dia:attribute>
      <dia:connections>
        <dia:connection handle="1" to="O25" connection="2"/>
      </dia:connections>
    </dia:object>
    <dia:object type="Standard - Line" version="0" id="O32">
      <dia:attribute name="obj_pos">
        <dia:point val="26.3377,8.91157"/>
      </dia:attribute>
      <dia:attribute name="obj_bb">
        <dia:rectangle val="26.2803,8.85417;41.0236,11.5199"/>
      </dia:attribute>
      <dia:attribute name="conn_endpoints">
        <dia:point val="26.3377,8.91157"/>
        <dia:point val="40.9662,11.3"/>
      </dia:attribute>
      <dia:attribute name="numcp">
        <dia:int val="1"/>
      </dia:attribute>
      <dia:attribute name="end_arrow">
        <dia:enum val="1"/>
      </dia:attribute>
      <dia:attribute name="end_arrow_length">
        <dia:real val="0.5"/>
      </dia:attribute>
      <dia:attribute name="end_arrow_width">
        <dia:real val="0.5"/>
      </dia:attribute>
      <dia:connections>
        <dia:connection handle="1" to="O29" connection="2"/>
      </dia:connections>
    </dia:object>
    <dia:object type="Standard - Box" version="0" id="O33">
      <dia:attribute name="obj_pos">
        <dia:point val="43.9712,11.345"/>
      </dia:attribute>
      <dia:attribute name="obj_bb">
        <dia:rectangle val="43.9212,11.295;48.4212,14.545"/>
      </dia:attribute>
      <dia:attribute name="elem_corner">
        <dia:point val="43.9712,11.345"/>
      </dia:attribute>
      <dia:attribute name="elem_width">
        <dia:real val="4.3999999999999915"/>
      </dia:attribute>
      <dia:attribute name="elem_height">
        <dia:real val="3.1499999999999986"/>
      </dia:attribute>
      <dia:attribute name="show_background">
        <dia:boolean val="true"/>
      </dia:attribute>
      <dia:attribute name="line_style">
        <dia:enum val="4"/>
      </dia:attribute>
    </dia:object>
    <dia:object type="Standard - Text" version="1" id="O34">
      <dia:attribute name="obj_pos">
        <dia:point val="30.6849,13.045"/>
      </dia:attribute>
      <dia:attribute name="obj_bb">
        <dia:rectangle val="30.6849,12.4509;30.6849,13.1959"/>
      </dia:attribute>
      <dia:attribute name="text">
        <dia:composite type="text">
          <dia:attribute name="string">
            <dia:string>##</dia:string>
          </dia:attribute>
          <dia:attribute name="font">
            <dia:font family="sans" style="0" name="Helvetica"/>
          </dia:attribute>
          <dia:attribute name="height">
            <dia:real val="0.80000000000000004"/>
          </dia:attribute>
          <dia:attribute name="pos">
            <dia:point val="30.6849,13.045"/>
          </dia:attribute>
          <dia:attribute name="color">
            <dia:color val="#000000ff"/>
          </dia:attribute>
          <dia:attribute name="alignment">
            <dia:enum val="0"/>
          </dia:attribute>
        </dia:composite>
      </dia:attribute>
      <dia:attribute name="valign">
        <dia:enum val="3"/>
      </dia:attribute>
      <dia:connections>
        <dia:connection handle="0" to="O19" connection="16"/>
      </dia:connections>
    </dia:object>
    <dia:object type="Flowchart - Box" version="0" id="O35">
      <dia:attribute name="obj_pos">
        <dia:point val="28.85,17.3658"/>
      </dia:attribute>
      <dia:attribute name="obj_bb">
        <dia:rectangle val="28.8,17.3158;32.5812,20.6325"/>
      </dia:attribute>
      <dia:attribute name="elem_corner">
        <dia:point val="28.85,17.3658"/>
      </dia:attribute>
      <dia:attribute name="elem_width">
        <dia:real val="3.6812000000000049"/>
      </dia:attribute>
      <dia:attribute name="elem_height">
        <dia:real val="3.2166665852069856"/>
      </dia:attribute>
      <dia:attribute name="inner_color">
        <dia:color val="#ff89b1ff"/>
      </dia:attribute>
      <dia:attribute name="show_background">
        <dia:boolean val="true"/>
      </dia:attribute>
      <dia:attribute name="padding">
        <dia:real val="0.5"/>
      </dia:attribute>
      <dia:attribute name="text">
        <dia:composite type="text">
          <dia:attribute name="string">
            <dia:string>#&lt;str&gt;
'Y'#</dia:string>
          </dia:attribute>
          <dia:attribute name="font">
            <dia:font family="sans" style="0" name="Helvetica"/>
          </dia:attribute>
          <dia:attribute name="height">
            <dia:real val="1.0583332926034927"/>
          </dia:attribute>
          <dia:attribute name="pos">
            <dia:point val="30.6906,18.7017"/>
          </dia:attribute>
          <dia:attribute name="color">
            <dia:color val="#000000ff"/>
          </dia:attribute>
          <dia:attribute name="alignment">
            <dia:enum val="1"/>
          </dia:attribute>
        </dia:composite>
      </dia:attribute>
    </dia:object>
    <dia:object type="Standard - Text" version="1" id="O36">
      <dia:attribute name="obj_pos">
        <dia:point val="30.6906,18.9742"/>
      </dia:attribute>
      <dia:attribute name="obj_bb">
        <dia:rectangle val="30.6906,18.3801;30.6906,19.1251"/>
      </dia:attribute>
      <dia:attribute name="text">
        <dia:composite type="text">
          <dia:attribute name="string">
            <dia:string>##</dia:string>
          </dia:attribute>
          <dia:attribute name="font">
            <dia:font family="sans" style="0" name="Helvetica"/>
          </dia:attribute>
          <dia:attribute name="height">
            <dia:real val="0.80000000000000004"/>
          </dia:attribute>
          <dia:attribute name="pos">
            <dia:point val="30.6906,18.9742"/>
          </dia:attribute>
          <dia:attribute name="color">
            <dia:color val="#000000ff"/>
          </dia:attribute>
          <dia:attribute name="alignment">
            <dia:enum val="0"/>
          </dia:attribute>
        </dia:composite>
      </dia:attribute>
      <dia:attribute name="valign">
        <dia:enum val="3"/>
      </dia:attribute>
      <dia:connections>
        <dia:connection handle="0" to="O35" connection="16"/>
      </dia:connections>
    </dia:object>
    <dia:object type="Standard - Text" version="1" id="O37">
      <dia:attribute name="obj_pos">
        <dia:point val="30.6906,18.9742"/>
      </dia:attribute>
      <dia:attribute name="obj_bb">
        <dia:rectangle val="30.6906,18.3801;30.6906,19.1251"/>
      </dia:attribute>
      <dia:attribute name="text">
        <dia:composite type="text">
          <dia:attribute name="string">
            <dia:string>##</dia:string>
          </dia:attribute>
          <dia:attribute name="font">
            <dia:font family="sans" style="0" name="Helvetica"/>
          </dia:attribute>
          <dia:attribute name="height">
            <dia:real val="0.80000000000000004"/>
          </dia:attribute>
          <dia:attribute name="pos">
            <dia:point val="30.6906,18.9742"/>
          </dia:attribute>
          <dia:attribute name="color">
            <dia:color val="#000000ff"/>
          </dia:attribute>
          <dia:attribute name="alignment">
            <dia:enum val="0"/>
          </dia:attribute>
        </dia:composite>
      </dia:attribute>
      <dia:attribute name="valign">
        <dia:enum val="3"/>
      </dia:attribute>
      <dia:connections>
        <dia:connection handle="0" to="O35" connection="16"/>
      </dia:connections>
    </dia:object>
    <dia:object type="Standard - Text" version="1" id="O38">
      <dia:attribute name="obj_pos">
        <dia:point val="24.3536,8.3825"/>
      </dia:attribute>
      <dia:attribute name="obj_bb">
        <dia:rectangle val="24.3536,7.78844;24.3536,8.53344"/>
      </dia:attribute>
      <dia:attribute name="text">
        <dia:composite type="text">
          <dia:attribute name="string">
            <dia:string>##</dia:string>
          </dia:attribute>
          <dia:attribute name="font">
            <dia:font family="sans" style="0" name="Helvetica"/>
          </dia:attribute>
          <dia:attribute name="height">
            <dia:real val="0.80000000000000004"/>
          </dia:attribute>
          <dia:attribute name="pos">
            <dia:point val="24.3536,8.3825"/>
          </dia:attribute>
          <dia:attribute name="color">
            <dia:color val="#000000ff"/>
          </dia:attribute>
          <dia:attribute name="alignment">
            <dia:enum val="0"/>
          </dia:attribute>
        </dia:composite>
      </dia:attribute>
      <dia:attribute name="valign">
        <dia:enum val="3"/>
      </dia:attribute>
      <dia:connections>
        <dia:connection handle="0" to="O1" connection="16"/>
      </dia:connections>
    </dia:object>
    <dia:object type="Standard - Text" version="1" id="O39">
      <dia:attribute name="obj_pos">
        <dia:point val="13.1191,11.1715"/>
      </dia:attribute>
      <dia:attribute name="obj_bb">
        <dia:rectangle val="13.1191,10.5774;13.1191,11.3224"/>
      </dia:attribute>
      <dia:attribute name="text">
        <dia:composite type="text">
          <dia:attribute name="string">
            <dia:string>##</dia:string>
          </dia:attribute>
          <dia:attribute name="font">
            <dia:font family="sans" style="0" name="Helvetica"/>
          </dia:attribute>
          <dia:attribute name="height">
            <dia:real val="0.80000000000000004"/>
          </dia:attribute>
          <dia:attribute name="pos">
            <dia:point val="13.1191,11.1715"/>
          </dia:attribute>
          <dia:attribute name="color">
            <dia:color val="#000000ff"/>
          </dia:attribute>
          <dia:attribute name="alignment">
            <dia:enum val="0"/>
          </dia:attribute>
        </dia:composite>
      </dia:attribute>
      <dia:attribute name="valign">
        <dia:enum val="3"/>
      </dia:attribute>
      <dia:connections>
        <dia:connection handle="0" to="O7" connection="16"/>
      </dia:connections>
    </dia:object>
    <dia:object type="Standard - Text" version="1" id="O40">
      <dia:attribute name="obj_pos">
        <dia:point val="30.6906,18.9742"/>
      </dia:attribute>
      <dia:attribute name="obj_bb">
        <dia:rectangle val="30.6906,18.3801;30.6906,19.1251"/>
      </dia:attribute>
      <dia:attribute name="text">
        <dia:composite type="text">
          <dia:attribute name="string">
            <dia:string>##</dia:string>
          </dia:attribute>
          <dia:attribute name="font">
            <dia:font family="sans" style="0" name="Helvetica"/>
          </dia:attribute>
          <dia:attribute name="height">
            <dia:real val="0.80000000000000004"/>
          </dia:attribute>
          <dia:attribute name="pos">
            <dia:point val="30.6906,18.9742"/>
          </dia:attribute>
          <dia:attribute name="color">
            <dia:color val="#000000ff"/>
          </dia:attribute>
          <dia:attribute name="alignment">
            <dia:enum val="0"/>
          </dia:attribute>
        </dia:composite>
      </dia:attribute>
      <dia:attribute name="valign">
        <dia:enum val="3"/>
      </dia:attribute>
      <dia:connections>
        <dia:connection handle="0" to="O35" connection="16"/>
      </dia:connections>
    </dia:object>
    <dia:object type="Flowchart - Box" version="0" id="O41">
      <dia:attribute name="obj_pos">
        <dia:point val="32.9137,17.3158"/>
      </dia:attribute>
      <dia:attribute name="obj_bb">
        <dia:rectangle val="32.8637,17.2658;36.6037,20.5825"/>
      </dia:attribute>
      <dia:attribute name="elem_corner">
        <dia:point val="32.9137,17.3158"/>
      </dia:attribute>
      <dia:attribute name="elem_width">
        <dia:real val="3.6400000000000001"/>
      </dia:attribute>
      <dia:attribute name="elem_height">
        <dia:real val="3.2166665852069856"/>
      </dia:attribute>
      <dia:attribute name="inner_color">
        <dia:color val="#ff89b1ff"/>
      </dia:attribute>
      <dia:attribute name="show_background">
        <dia:boolean val="true"/>
      </dia:attribute>
      <dia:attribute name="padding">
        <dia:real val="0.5"/>
      </dia:attribute>
      <dia:attribute name="text">
        <dia:composite type="text">
          <dia:attribute name="string">
            <dia:string>#&lt;str&gt;
'N'#</dia:string>
          </dia:attribute>
          <dia:attribute name="font">
            <dia:font family="sans" style="0" name="Helvetica"/>
          </dia:attribute>
          <dia:attribute name="height">
            <dia:real val="1.0583332926034927"/>
          </dia:attribute>
          <dia:attribute name="pos">
            <dia:point val="34.7337,18.6517"/>
          </dia:attribute>
          <dia:attribute name="color">
            <dia:color val="#000000ff"/>
          </dia:attribute>
          <dia:attribute name="alignment">
            <dia:enum val="1"/>
          </dia:attribute>
        </dia:composite>
      </dia:attribute>
    </dia:object>
    <dia:object type="Standard - Text" version="1" id="O42">
      <dia:attribute name="obj_pos">
        <dia:point val="34.7337,18.9242"/>
      </dia:attribute>
      <dia:attribute name="obj_bb">
        <dia:rectangle val="34.7337,18.3301;34.7337,19.0751"/>
      </dia:attribute>
      <dia:attribute name="text">
        <dia:composite type="text">
          <dia:attribute name="string">
            <dia:string>##</dia:string>
          </dia:attribute>
          <dia:attribute name="font">
            <dia:font family="sans" style="0" name="Helvetica"/>
          </dia:attribute>
          <dia:attribute name="height">
            <dia:real val="0.80000000000000004"/>
          </dia:attribute>
          <dia:attribute name="pos">
            <dia:point val="34.7337,18.9242"/>
          </dia:attribute>
          <dia:attribute name="color">
            <dia:color val="#000000ff"/>
          </dia:attribute>
          <dia:attribute name="alignment">
            <dia:enum val="0"/>
          </dia:attribute>
        </dia:composite>
      </dia:attribute>
      <dia:attribute name="valign">
        <dia:enum val="3"/>
      </dia:attribute>
      <dia:connections>
        <dia:connection handle="0" to="O41" connection="16"/>
      </dia:connections>
    </dia:object>
    <dia:object type="Standard - Text" version="1" id="O43">
      <dia:attribute name="obj_pos">
        <dia:point val="26.235,13.145"/>
      </dia:attribute>
      <dia:attribute name="obj_bb">
        <dia:rectangle val="26.235,12.5509;26.235,13.2959"/>
      </dia:attribute>
      <dia:attribute name="text">
        <dia:composite type="text">
          <dia:attribute name="string">
            <dia:string>##</dia:string>
          </dia:attribute>
          <dia:attribute name="font">
            <dia:font family="sans" style="0" name="Helvetica"/>
          </dia:attribute>
          <dia:attribute name="height">
            <dia:real val="0.80000000000000004"/>
          </dia:attribute>
          <dia:attribute name="pos">
            <dia:point val="26.235,13.145"/>
          </dia:attribute>
          <dia:attribute name="color">
            <dia:color val="#000000ff"/>
          </dia:attribute>
          <dia:attribute name="alignment">
            <dia:enum val="0"/>
          </dia:attribute>
        </dia:composite>
      </dia:attribute>
      <dia:attribute name="valign">
        <dia:enum val="3"/>
      </dia:attribute>
      <dia:connections>
        <dia:connection handle="0" to="O16" connection="16"/>
      </dia:connections>
    </dia:object>
    <dia:object type="Flowchart - Box" version="0" id="O44">
      <dia:attribute name="obj_pos">
        <dia:point val="28.485,22.995"/>
      </dia:attribute>
      <dia:attribute name="obj_bb">
        <dia:rectangle val="28.435,22.945;37.1999,27.32"/>
      </dia:attribute>
      <dia:attribute name="elem_corner">
        <dia:point val="28.485,22.995"/>
      </dia:attribute>
      <dia:attribute name="elem_width">
        <dia:real val="8.6649351071553937"/>
      </dia:attribute>
      <dia:attribute name="elem_height">
        <dia:real val="4.2749998778104779"/>
      </dia:attribute>
      <dia:attribute name="inner_color">
        <dia:color val="#ff89b1ff"/>
      </dia:attribute>
      <dia:attribute name="show_background">
        <dia:boolean val="true"/>
      </dia:attribute>
      <dia:attribute name="padding">
        <dia:real val="0.5"/>
      </dia:attribute>
      <dia:attribute name="text">
        <dia:composite type="text">
          <dia:attribute name="string">
            <dia:string>#&lt;list&gt;
[   ,   ]#</dia:string>
          </dia:attribute>
          <dia:attribute name="font">
            <dia:font family="sans" style="0" name="Helvetica"/>
          </dia:attribute>
          <dia:attribute name="height">
            <dia:real val="1.0583332926034927"/>
          </dia:attribute>
          <dia:attribute name="pos">
            <dia:point val="32.8175,24.8601"/>
          </dia:attribute>
          <dia:attribute name="color">
            <dia:color val="#000000ff"/>
          </dia:attribute>
          <dia:attribute name="alignment">
            <dia:enum val="1"/>
          </dia:attribute>
        </dia:composite>
      </dia:attribute>
    </dia:object>
    <dia:object type="Standard - Text" version="1" id="O45">
      <dia:attribute name="obj_pos">
        <dia:point val="13.1191,11.1715"/>
      </dia:attribute>
      <dia:attribute name="obj_bb">
        <dia:rectangle val="13.1191,10.5774;13.1191,11.3224"/>
      </dia:attribute>
      <dia:attribute name="text">
        <dia:composite type="text">
          <dia:attribute name="string">
            <dia:string>##</dia:string>
          </dia:attribute>
          <dia:attribute name="font">
            <dia:font family="sans" style="0" name="Helvetica"/>
          </dia:attribute>
          <dia:attribute name="height">
            <dia:real val="0.80000000000000004"/>
          </dia:attribute>
          <dia:attribute name="pos">
            <dia:point val="13.1191,11.1715"/>
          </dia:attribute>
          <dia:attribute name="color">
            <dia:color val="#000000ff"/>
          </dia:attribute>
          <dia:attribute name="alignment">
            <dia:enum val="0"/>
          </dia:attribute>
        </dia:composite>
      </dia:attribute>
      <dia:attribute name="valign">
        <dia:enum val="3"/>
      </dia:attribute>
      <dia:connections>
        <dia:connection handle="0" to="O7" connection="16"/>
      </dia:connections>
    </dia:object>
    <dia:object type="Standard - Line" version="0" id="O46">
      <dia:attribute name="obj_pos">
        <dia:point val="32.2,25.9"/>
      </dia:attribute>
      <dia:attribute name="obj_bb">
        <dia:rectangle val="30.553,20.5207;32.2618,25.9618"/>
      </dia:attribute>
      <dia:attribute name="conn_endpoints">
        <dia:point val="32.2,25.9"/>
        <dia:point val="30.6906,20.5825"/>
      </dia:attribute>
      <dia:attribute name="numcp">
        <dia:int val="1"/>
      </dia:attribute>
      <dia:attribute name="end_arrow">
        <dia:enum val="1"/>
      </dia:attribute>
      <dia:attribute name="end_arrow_length">
        <dia:real val="0.5"/>
      </dia:attribute>
      <dia:attribute name="end_arrow_width">
        <dia:real val="0.5"/>
      </dia:attribute>
      <dia:connections>
        <dia:connection handle="1" to="O35" connection="13"/>
      </dia:connections>
    </dia:object>
    <dia:object type="Standard - Line" version="0" id="O47">
      <dia:attribute name="obj_pos">
        <dia:point val="26.1746,13.6457"/>
      </dia:attribute>
      <dia:attribute name="obj_bb">
        <dia:rectangle val="26.1042,13.5753;30.761,17.4362"/>
      </dia:attribute>
      <dia:attribute name="conn_endpoints">
        <dia:point val="26.1746,13.6457"/>
        <dia:point val="30.6906,17.3658"/>
      </dia:attribute>
      <dia:attribute name="numcp">
        <dia:int val="1"/>
      </dia:attribute>
      <dia:attribute name="end_arrow">
        <dia:enum val="1"/>
      </dia:attribute>
      <dia:attribute name="end_arrow_length">
        <dia:real val="0.5"/>
      </dia:attribute>
      <dia:attribute name="end_arrow_width">
        <dia:real val="0.5"/>
      </dia:attribute>
      <dia:connections>
        <dia:connection handle="1" to="O35" connection="2"/>
      </dia:connections>
    </dia:object>
    <dia:object type="Standard - Line" version="0" id="O48">
      <dia:attribute name="obj_pos">
        <dia:point val="30.7096,13.4907"/>
      </dia:attribute>
      <dia:attribute name="obj_bb">
        <dia:rectangle val="30.6389,13.42;34.8044,17.3865"/>
      </dia:attribute>
      <dia:attribute name="conn_endpoints">
        <dia:point val="30.7096,13.4907"/>
        <dia:point val="34.7337,17.3158"/>
      </dia:attribute>
      <dia:attribute name="numcp">
        <dia:int val="1"/>
      </dia:attribute>
      <dia:attribute name="end_arrow">
        <dia:enum val="1"/>
      </dia:attribute>
      <dia:attribute name="end_arrow_length">
        <dia:real val="0.5"/>
      </dia:attribute>
      <dia:attribute name="end_arrow_width">
        <dia:real val="0.5"/>
      </dia:attribute>
      <dia:connections>
        <dia:connection handle="1" to="O41" connection="2"/>
      </dia:connections>
    </dia:object>
    <dia:object type="Standard - Line" version="0" id="O49">
      <dia:attribute name="obj_pos">
        <dia:point val="34.9446,13.3857"/>
      </dia:attribute>
      <dia:attribute name="obj_bb">
        <dia:rectangle val="30.6199,13.315;35.0153,17.4365"/>
      </dia:attribute>
      <dia:attribute name="conn_endpoints">
        <dia:point val="34.9446,13.3857"/>
        <dia:point val="30.6906,17.3658"/>
      </dia:attribute>
      <dia:attribute name="numcp">
        <dia:int val="1"/>
      </dia:attribute>
      <dia:attribute name="end_arrow">
        <dia:enum val="1"/>
      </dia:attribute>
      <dia:attribute name="end_arrow_length">
        <dia:real val="0.5"/>
      </dia:attribute>
      <dia:attribute name="end_arrow_width">
        <dia:real val="0.5"/>
      </dia:attribute>
      <dia:connections>
        <dia:connection handle="1" to="O35" connection="2"/>
      </dia:connections>
    </dia:object>
    <dia:object type="Standard - Line" version="0" id="O50">
      <dia:attribute name="obj_pos">
        <dia:point val="36.1796,13.4307"/>
      </dia:attribute>
      <dia:attribute name="obj_bb">
        <dia:rectangle val="30.6208,13.3609;36.2494,17.4356"/>
      </dia:attribute>
      <dia:attribute name="conn_endpoints">
        <dia:point val="36.1796,13.4307"/>
        <dia:point val="30.6906,17.3658"/>
      </dia:attribute>
      <dia:attribute name="numcp">
        <dia:int val="1"/>
      </dia:attribute>
      <dia:attribute name="end_arrow">
        <dia:enum val="1"/>
      </dia:attribute>
      <dia:attribute name="end_arrow_length">
        <dia:real val="0.5"/>
      </dia:attribute>
      <dia:attribute name="end_arrow_width">
        <dia:real val="0.5"/>
      </dia:attribute>
      <dia:connections>
        <dia:connection handle="1" to="O35" connection="2"/>
      </dia:connections>
    </dia:object>
    <dia:object type="Standard - Line" version="0" id="O51">
      <dia:attribute name="obj_pos">
        <dia:point val="40.3246,13.2457"/>
      </dia:attribute>
      <dia:attribute name="obj_bb">
        <dia:rectangle val="30.625,13.1801;40.3902,17.4315"/>
      </dia:attribute>
      <dia:attribute name="conn_endpoints">
        <dia:point val="40.3246,13.2457"/>
        <dia:point val="30.6906,17.3658"/>
      </dia:attribute>
      <dia:attribute name="numcp">
        <dia:int val="1"/>
      </dia:attribute>
      <dia:attribute name="end_arrow">
        <dia:enum val="1"/>
      </dia:attribute>
      <dia:attribute name="end_arrow_length">
        <dia:real val="0.5"/>
      </dia:attribute>
      <dia:attribute name="end_arrow_width">
        <dia:real val="0.5"/>
      </dia:attribute>
      <dia:connections>
        <dia:connection handle="1" to="O35" connection="2"/>
      </dia:connections>
    </dia:object>
    <dia:object type="Standard - Line" version="0" id="O52">
      <dia:attribute name="obj_pos">
        <dia:point val="41.5596,13.2907"/>
      </dia:attribute>
      <dia:attribute name="obj_bb">
        <dia:rectangle val="34.6653,13.2222;41.6281,17.3843"/>
      </dia:attribute>
      <dia:attribute name="conn_endpoints">
        <dia:point val="41.5596,13.2907"/>
        <dia:point val="34.7337,17.3158"/>
      </dia:attribute>
      <dia:attribute name="numcp">
        <dia:int val="1"/>
      </dia:attribute>
      <dia:attribute name="end_arrow">
        <dia:enum val="1"/>
      </dia:attribute>
      <dia:attribute name="end_arrow_length">
        <dia:real val="0.5"/>
      </dia:attribute>
      <dia:attribute name="end_arrow_width">
        <dia:real val="0.5"/>
      </dia:attribute>
      <dia:connections>
        <dia:connection handle="1" to="O41" connection="2"/>
      </dia:connections>
    </dia:object>
    <dia:object type="Standard - Text" version="1" id="O53">
      <dia:attribute name="obj_pos">
        <dia:point val="32.8175,25.1325"/>
      </dia:attribute>
      <dia:attribute name="obj_bb">
        <dia:rectangle val="32.8175,24.5384;32.8175,25.2834"/>
      </dia:attribute>
      <dia:attribute name="text">
        <dia:composite type="text">
          <dia:attribute name="string">
            <dia:string>##</dia:string>
          </dia:attribute>
          <dia:attribute name="font">
            <dia:font family="sans" style="0" name="Helvetica"/>
          </dia:attribute>
          <dia:attribute name="height">
            <dia:real val="0.80000000000000004"/>
          </dia:attribute>
          <dia:attribute name="pos">
            <dia:point val="32.8175,25.1325"/>
          </dia:attribute>
          <dia:attribute name="color">
            <dia:color val="#000000ff"/>
          </dia:attribute>
          <dia:attribute name="alignment">
            <dia:enum val="0"/>
          </dia:attribute>
        </dia:composite>
      </dia:attribute>
      <dia:attribute name="valign">
        <dia:enum val="3"/>
      </dia:attribute>
      <dia:connections>
        <dia:connection handle="0" to="O44" connection="16"/>
      </dia:connections>
    </dia:object>
    <dia:object type="Standard - Line" version="0" id="O54">
      <dia:attribute name="obj_pos">
        <dia:point val="33.4596,25.8907"/>
      </dia:attribute>
      <dia:attribute name="obj_bb">
        <dia:rectangle val="33.3994,20.4723;34.9026,25.9509"/>
      </dia:attribute>
      <dia:attribute name="conn_endpoints">
        <dia:point val="33.4596,25.8907"/>
        <dia:point val="34.7337,20.5325"/>
      </dia:attribute>
      <dia:attribute name="numcp">
        <dia:int val="1"/>
      </dia:attribute>
      <dia:attribute name="end_arrow">
        <dia:enum val="1"/>
      </dia:attribute>
      <dia:attribute name="end_arrow_length">
        <dia:real val="0.5"/>
      </dia:attribute>
      <dia:attribute name="end_arrow_width">
        <dia:real val="0.5"/>
      </dia:attribute>
      <dia:connections>
        <dia:connection handle="1" to="O41" connection="13"/>
      </dia:connections>
    </dia:object>
    <dia:object type="Flowchart - Ellipse" version="0" id="O55">
      <dia:attribute name="obj_pos">
        <dia:point val="19.3981,23.8383"/>
      </dia:attribute>
      <dia:attribute name="obj_bb">
        <dia:rectangle val="19.3481,23.7883;25.7473,26.6165"/>
      </dia:attribute>
      <dia:attribute name="elem_corner">
        <dia:point val="19.3981,23.8383"/>
      </dia:attribute>
      <dia:attribute name="elem_width">
        <dia:real val="6.2991613227334708"/>
      </dia:attribute>
      <dia:attribute name="elem_height">
        <dia:real val="2.7282433838809226"/>
      </dia:attribute>
      <dia:attribute name="inner_color">
        <dia:color val="#9cfff8ff"/>
      </dia:attribute>
      <dia:attribute name="show_background">
        <dia:boolean val="true"/>
      </dia:attribute>
      <dia:attribute name="padding">
        <dia:real val="0.35355339059327379"/>
      </dia:attribute>
      <dia:attribute name="text">
        <dia:composite type="text">
          <dia:attribute name="string">
            <dia:string>#elements#</dia:string>
          </dia:attribute>
          <dia:attribute name="font">
            <dia:font family="sans" style="0" name="Helvetica"/>
          </dia:attribute>
          <dia:attribute name="height">
            <dia:real val="1.0583332926034927"/>
          </dia:attribute>
          <dia:attribute name="pos">
            <dia:point val="22.5477,25.4591"/>
          </dia:attribute>
          <dia:attribute name="color">
            <dia:color val="#000000ff"/>
          </dia:attribute>
          <dia:attribute name="alignment">
            <dia:enum val="1"/>
          </dia:attribute>
        </dia:composite>
      </dia:attribute>
    </dia:object>
    <dia:object type="Standard - Text" version="1" id="O56">
      <dia:attribute name="obj_pos">
        <dia:point val="22.5477,25.2024"/>
      </dia:attribute>
      <dia:attribute name="obj_bb">
        <dia:rectangle val="22.5477,24.6084;22.5477,25.3534"/>
      </dia:attribute>
      <dia:attribute name="text">
        <dia:composite type="text">
          <dia:attribute name="string">
            <dia:string>##</dia:string>
          </dia:attribute>
          <dia:attribute name="font">
            <dia:font family="sans" style="0" name="Helvetica"/>
          </dia:attribute>
          <dia:attribute name="height">
            <dia:real val="0.80000000000000004"/>
          </dia:attribute>
          <dia:attribute name="pos">
            <dia:point val="22.5477,25.2024"/>
          </dia:attribute>
          <dia:attribute name="color">
            <dia:color val="#000000ff"/>
          </dia:attribute>
          <dia:attribute name="alignment">
            <dia:enum val="0"/>
          </dia:attribute>
        </dia:composite>
      </dia:attribute>
      <dia:attribute name="valign">
        <dia:enum val="3"/>
      </dia:attribute>
      <dia:connections>
        <dia:connection handle="0" to="O55" connection="16"/>
      </dia:connections>
    </dia:object>
    <dia:object type="Standard - Line" version="0" id="O57">
      <dia:attribute name="obj_pos">
        <dia:point val="25.6973,25.2024"/>
      </dia:attribute>
      <dia:attribute name="obj_bb">
        <dia:rectangle val="25.646,24.8183;28.5362,25.4799"/>
      </dia:attribute>
      <dia:attribute name="conn_endpoints">
        <dia:point val="25.6973,25.2024"/>
        <dia:point val="28.485,25.1325"/>
      </dia:attribute>
      <dia:attribute name="numcp">
        <dia:int val="1"/>
      </dia:attribute>
      <dia:attribute name="end_arrow">
        <dia:enum val="1"/>
      </dia:attribute>
      <dia:attribute name="end_arrow_length">
        <dia:real val="0.5"/>
      </dia:attribute>
      <dia:attribute name="end_arrow_width">
        <dia:real val="0.5"/>
      </dia:attribute>
      <dia:connections>
        <dia:connection handle="0" to="O55" connection="0"/>
        <dia:connection handle="1" to="O44" connection="7"/>
      </dia:connections>
    </dia:object>
    <dia:object type="Standard - Text" version="1" id="O58">
      <dia:attribute name="obj_pos">
        <dia:point val="30.6906,18.9742"/>
      </dia:attribute>
      <dia:attribute name="obj_bb">
        <dia:rectangle val="30.6906,18.3801;30.6906,19.1251"/>
      </dia:attribute>
      <dia:attribute name="text">
        <dia:composite type="text">
          <dia:attribute name="string">
            <dia:string>##</dia:string>
          </dia:attribute>
          <dia:attribute name="font">
            <dia:font family="sans" style="0" name="Helvetica"/>
          </dia:attribute>
          <dia:attribute name="height">
            <dia:real val="0.80000000000000004"/>
          </dia:attribute>
          <dia:attribute name="pos">
            <dia:point val="30.6906,18.9742"/>
          </dia:attribute>
          <dia:attribute name="color">
            <dia:color val="#000000ff"/>
          </dia:attribute>
          <dia:attribute name="alignment">
            <dia:enum val="0"/>
          </dia:attribute>
        </dia:composite>
      </dia:attribute>
      <dia:attribute name="valign">
        <dia:enum val="3"/>
      </dia:attribute>
      <dia:connections>
        <dia:connection handle="0" to="O35" connection="16"/>
      </dia:connections>
    </dia:object>
  </dia:layer>
</dia:diagram>
